{
    "m_SGVersion": 3,
    "m_Type": "UnityEditor.ShaderGraph.GraphData",
    "m_ObjectId": "7a19d8e833c84e65b54dd09630b55fbe",
    "m_Properties": [
        {
            "m_Id": "7f432fbb6f4d44649e1f2e1823cf59ae"
        },
        {
            "m_Id": "507af90bcd6e46c3be1c0c2ccd921826"
        },
        {
            "m_Id": "85a81390ba2544da963431f6b5cf7993"
        },
        {
            "m_Id": "89b6e63ee76a49e7b9e719ff4f592c48"
        },
        {
            "m_Id": "9c422c768bc149d0b0b63badbe650ef4"
        }
    ],
    "m_Keywords": [],
    "m_Dropdowns": [],
    "m_CategoryData": [
        {
            "m_Id": "d5cf08317d0b4822a742c90644e33ff8"
        }
    ],
    "m_Nodes": [
        {
            "m_Id": "e933b608b7dc4217b02681651cc6b7b2"
        },
        {
            "m_Id": "64822a7679cb4c33afacb0cc6203424f"
        },
        {
            "m_Id": "2c5e1ef5f1984bfb93ea5c25683b3192"
        },
        {
            "m_Id": "a1196f6938ee4c1298192ea2831c28b1"
        },
        {
            "m_Id": "3650efa05ece421cb501cb558d70c607"
        },
        {
            "m_Id": "ee04a41be0834a8c9cc30659265e40b3"
        },
        {
            "m_Id": "725556c68ece4a819ae10d25b7498abf"
        },
        {
            "m_Id": "c50ba31e374c4b79bbc386ce892484b6"
        },
        {
            "m_Id": "586b8b1e368a4f6fb628ccec3a796a89"
        },
        {
            "m_Id": "aab210f13cf141a687bb7f299df5f9b7"
        },
        {
            "m_Id": "87118f058e114e208adb60919110c6b3"
        },
        {
            "m_Id": "14e0cadc8902498bbb2667ec71d184d7"
        },
        {
            "m_Id": "5a252350c5cd4b83aa76b4244b2db916"
        },
        {
            "m_Id": "ba3e77c8185d47eab8b1a84ec0eb6fd1"
        },
        {
            "m_Id": "aa27dcd5615c4ee58582746883ab86d2"
        },
        {
            "m_Id": "2de0a7f394a54bfc8b356f9b579dc837"
        },
        {
            "m_Id": "f630cce19db347b382c7b3cd9a4caa82"
        },
        {
            "m_Id": "470ed99b68a34702b367afb72b9fd2eb"
        },
        {
            "m_Id": "8bdb102a5ccb4b34b5af559b8dd785a4"
        },
        {
            "m_Id": "a5cda87e68f640db9b737c7b8187c4df"
        },
        {
            "m_Id": "a79627946b114160afaef5e16a33b15a"
        },
        {
            "m_Id": "bf20e2d586fe49f9b8fed98b555fb5e3"
        },
        {
            "m_Id": "3bc5b61ea76147b188234731cdb121a9"
        }
    ],
    "m_GroupDatas": [],
    "m_StickyNoteDatas": [],
    "m_Edges": [
        {
            "m_OutputSlot": {
                "m_Node": {
                    "m_Id": "14e0cadc8902498bbb2667ec71d184d7"
                },
                "m_SlotId": 2
            },
            "m_InputSlot": {
                "m_Node": {
                    "m_Id": "87118f058e114e208adb60919110c6b3"
                },
                "m_SlotId": 1
            }
        },
        {
            "m_OutputSlot": {
                "m_Node": {
                    "m_Id": "2de0a7f394a54bfc8b356f9b579dc837"
                },
                "m_SlotId": 0
            },
            "m_InputSlot": {
                "m_Node": {
                    "m_Id": "aa27dcd5615c4ee58582746883ab86d2"
                },
                "m_SlotId": -337072374
            }
        },
        {
            "m_OutputSlot": {
                "m_Node": {
                    "m_Id": "470ed99b68a34702b367afb72b9fd2eb"
                },
                "m_SlotId": 4
            },
            "m_InputSlot": {
                "m_Node": {
                    "m_Id": "3650efa05ece421cb501cb558d70c607"
                },
                "m_SlotId": 0
            }
        },
        {
            "m_OutputSlot": {
                "m_Node": {
                    "m_Id": "586b8b1e368a4f6fb628ccec3a796a89"
                },
                "m_SlotId": 0
            },
            "m_InputSlot": {
                "m_Node": {
                    "m_Id": "5a252350c5cd4b83aa76b4244b2db916"
                },
                "m_SlotId": 10972793
            }
        },
        {
            "m_OutputSlot": {
                "m_Node": {
                    "m_Id": "586b8b1e368a4f6fb628ccec3a796a89"
                },
                "m_SlotId": 0
            },
            "m_InputSlot": {
                "m_Node": {
                    "m_Id": "aab210f13cf141a687bb7f299df5f9b7"
                },
                "m_SlotId": 10972793
            }
        },
        {
            "m_OutputSlot": {
                "m_Node": {
                    "m_Id": "5a252350c5cd4b83aa76b4244b2db916"
                },
                "m_SlotId": 0
            },
            "m_InputSlot": {
                "m_Node": {
                    "m_Id": "14e0cadc8902498bbb2667ec71d184d7"
                },
                "m_SlotId": 1
            }
        },
        {
            "m_OutputSlot": {
                "m_Node": {
                    "m_Id": "725556c68ece4a819ae10d25b7498abf"
                },
                "m_SlotId": 0
            },
            "m_InputSlot": {
                "m_Node": {
                    "m_Id": "aab210f13cf141a687bb7f299df5f9b7"
                },
                "m_SlotId": 1021171209
            }
        },
        {
            "m_OutputSlot": {
                "m_Node": {
                    "m_Id": "725556c68ece4a819ae10d25b7498abf"
                },
                "m_SlotId": 0
            },
            "m_InputSlot": {
                "m_Node": {
                    "m_Id": "ba3e77c8185d47eab8b1a84ec0eb6fd1"
                },
                "m_SlotId": 1
            }
        },
        {
            "m_OutputSlot": {
                "m_Node": {
                    "m_Id": "87118f058e114e208adb60919110c6b3"
                },
                "m_SlotId": 2
            },
            "m_InputSlot": {
                "m_Node": {
                    "m_Id": "c50ba31e374c4b79bbc386ce892484b6"
                },
                "m_SlotId": 0
            }
        },
        {
            "m_OutputSlot": {
                "m_Node": {
                    "m_Id": "aa27dcd5615c4ee58582746883ab86d2"
                },
                "m_SlotId": 2
            },
            "m_InputSlot": {
                "m_Node": {
                    "m_Id": "470ed99b68a34702b367afb72b9fd2eb"
                },
                "m_SlotId": 0
            }
        },
        {
            "m_OutputSlot": {
                "m_Node": {
                    "m_Id": "aa27dcd5615c4ee58582746883ab86d2"
                },
                "m_SlotId": 2
            },
            "m_InputSlot": {
                "m_Node": {
                    "m_Id": "87118f058e114e208adb60919110c6b3"
                },
                "m_SlotId": 0
            }
        },
        {
            "m_OutputSlot": {
                "m_Node": {
                    "m_Id": "aab210f13cf141a687bb7f299df5f9b7"
                },
                "m_SlotId": 0
            },
            "m_InputSlot": {
                "m_Node": {
                    "m_Id": "14e0cadc8902498bbb2667ec71d184d7"
                },
                "m_SlotId": 0
            }
        },
        {
            "m_OutputSlot": {
                "m_Node": {
                    "m_Id": "ba3e77c8185d47eab8b1a84ec0eb6fd1"
                },
                "m_SlotId": 2
            },
            "m_InputSlot": {
                "m_Node": {
                    "m_Id": "5a252350c5cd4b83aa76b4244b2db916"
                },
                "m_SlotId": 1021171209
            }
        },
        {
            "m_OutputSlot": {
                "m_Node": {
                    "m_Id": "c50ba31e374c4b79bbc386ce892484b6"
                },
                "m_SlotId": 2
            },
            "m_InputSlot": {
                "m_Node": {
                    "m_Id": "e933b608b7dc4217b02681651cc6b7b2"
                },
                "m_SlotId": 0
            }
        },
        {
            "m_OutputSlot": {
                "m_Node": {
                    "m_Id": "ee04a41be0834a8c9cc30659265e40b3"
                },
                "m_SlotId": 0
            },
            "m_InputSlot": {
                "m_Node": {
                    "m_Id": "c50ba31e374c4b79bbc386ce892484b6"
                },
                "m_SlotId": 1
            }
        },
        {
            "m_OutputSlot": {
                "m_Node": {
                    "m_Id": "f630cce19db347b382c7b3cd9a4caa82"
                },
                "m_SlotId": 0
            },
            "m_InputSlot": {
                "m_Node": {
                    "m_Id": "aa27dcd5615c4ee58582746883ab86d2"
                },
                "m_SlotId": -1738348280
            }
        }
    ],
    "m_VertexContext": {
        "m_Position": {
            "x": 2305.333251953125,
            "y": 986.666748046875
        },
        "m_Blocks": [
            {
                "m_Id": "64822a7679cb4c33afacb0cc6203424f"
            },
            {
                "m_Id": "2c5e1ef5f1984bfb93ea5c25683b3192"
            },
            {
                "m_Id": "a1196f6938ee4c1298192ea2831c28b1"
            }
        ]
    },
    "m_FragmentContext": {
        "m_Position": {
            "x": 2305.333251953125,
            "y": 1186.6668701171875
        },
        "m_Blocks": [
            {
                "m_Id": "e933b608b7dc4217b02681651cc6b7b2"
            },
            {
                "m_Id": "3650efa05ece421cb501cb558d70c607"
            },
            {
                "m_Id": "8bdb102a5ccb4b34b5af559b8dd785a4"
            },
            {
                "m_Id": "a5cda87e68f640db9b737c7b8187c4df"
            },
            {
                "m_Id": "a79627946b114160afaef5e16a33b15a"
            },
            {
                "m_Id": "bf20e2d586fe49f9b8fed98b555fb5e3"
            },
            {
                "m_Id": "3bc5b61ea76147b188234731cdb121a9"
            }
        ]
    },
    "m_PreviewData": {
        "serializedMesh": {
            "m_SerializedMesh": "{\"mesh\":{\"instanceID\":0}}",
            "m_Guid": ""
        },
        "preventRotation": false
    },
    "m_Path": "Shader Graphs",
    "m_GraphPrecision": 1,
    "m_PreviewMode": 2,
    "m_OutputNode": {
        "m_Id": ""
    },
    "m_ActiveTargets": [
        {
            "m_Id": "c789d3a32ad14b109215a5a5d39f6ff5"
        }
    ]
}

{
    "m_SGVersion": 0,
    "m_Type": "UnityEditor.ShaderGraph.Vector1MaterialSlot",
    "m_ObjectId": "04fefad1bacc4478bbee686d7484d526",
    "m_Id": 0,
    "m_DisplayName": "zoom",
    "m_SlotType": 1,
    "m_Hidden": false,
    "m_ShaderOutputName": "Out",
    "m_StageCapability": 3,
    "m_Value": 0.0,
    "m_DefaultValue": 0.0,
    "m_Labels": []
}

{
    "m_SGVersion": 0,
    "m_Type": "UnityEditor.ShaderGraph.DynamicVectorMaterialSlot",
    "m_ObjectId": "09918477776b49949740b6df816d6a68",
    "m_Id": 1,
    "m_DisplayName": "B",
    "m_SlotType": 0,
    "m_Hidden": false,
    "m_ShaderOutputName": "B",
    "m_StageCapability": 3,
    "m_Value": {
        "x": 0.0,
        "y": 0.0,
        "z": 0.0,
        "w": 0.0
    },
    "m_DefaultValue": {
        "x": 0.0,
        "y": 0.0,
        "z": 0.0,
        "w": 0.0
    }
}

{
    "m_SGVersion": 0,
    "m_Type": "UnityEditor.ShaderGraph.AddNode",
    "m_ObjectId": "14e0cadc8902498bbb2667ec71d184d7",
    "m_Group": {
        "m_Id": ""
    },
    "m_Name": "Add",
    "m_DrawState": {
        "m_Expanded": true,
        "m_Position": {
            "serializedVersion": "2",
            "x": -912.6666259765625,
            "y": 1168.0,
            "width": 209.3333740234375,
            "height": 304.0
        }
    },
    "m_Slots": [
        {
            "m_Id": "d09c21a1cddc419baaf73df28a804167"
        },
        {
            "m_Id": "09918477776b49949740b6df816d6a68"
        },
        {
            "m_Id": "43c7c4b83ae04bcfae00c4466455f709"
        }
    ],
    "synonyms": [
        "addition",
        "sum",
        "plus"
    ],
    "m_Precision": 0,
    "m_PreviewExpanded": true,
    "m_DismissedVersion": 0,
    "m_PreviewMode": 0,
    "m_CustomColors": {
        "m_SerializableColors": []
    }
}

{
    "m_SGVersion": 0,
    "m_Type": "UnityEditor.ShaderGraph.Vector4MaterialSlot",
    "m_ObjectId": "1951c4e058f4495facdbcc72943be6b7",
    "m_Id": 0,
    "m_DisplayName": "tint",
    "m_SlotType": 1,
    "m_Hidden": false,
    "m_ShaderOutputName": "Out",
    "m_StageCapability": 3,
    "m_Value": {
        "x": 0.0,
        "y": 0.0,
        "z": 0.0,
        "w": 0.0
    },
    "m_DefaultValue": {
        "x": 0.0,
        "y": 0.0,
        "z": 0.0,
        "w": 0.0
    },
    "m_Labels": []
}

{
    "m_SGVersion": 0,
    "m_Type": "UnityEditor.ShaderGraph.TangentMaterialSlot",
    "m_ObjectId": "24bdfba492b34489bdb637109b2a18bc",
    "m_Id": 0,
    "m_DisplayName": "Tangent",
    "m_SlotType": 0,
    "m_Hidden": false,
    "m_ShaderOutputName": "Tangent",
    "m_StageCapability": 1,
    "m_Value": {
        "x": 0.0,
        "y": 0.0,
        "z": 0.0
    },
    "m_DefaultValue": {
        "x": 0.0,
        "y": 0.0,
        "z": 0.0
    },
    "m_Labels": [],
    "m_Space": 0
}

{
    "m_SGVersion": 0,
    "m_Type": "UnityEditor.ShaderGraph.Vector1MaterialSlot",
    "m_ObjectId": "296b7b8ab44549989c9351294cfbe6b4",
    "m_Id": 0,
    "m_DisplayName": "brightness",
    "m_SlotType": 1,
    "m_Hidden": false,
    "m_ShaderOutputName": "Out",
    "m_StageCapability": 3,
    "m_Value": 0.0,
    "m_DefaultValue": 0.0,
    "m_Labels": []
}

{
    "m_SGVersion": 0,
    "m_Type": "UnityEditor.ShaderGraph.BlockNode",
    "m_ObjectId": "2c5e1ef5f1984bfb93ea5c25683b3192",
    "m_Group": {
        "m_Id": ""
    },
    "m_Name": "VertexDescription.Normal",
    "m_DrawState": {
        "m_Expanded": true,
        "m_Position": {
            "serializedVersion": "2",
            "x": 0.0,
            "y": 0.0,
            "width": 0.0,
            "height": 0.0
        }
    },
    "m_Slots": [
        {
            "m_Id": "a086ff5bf93245cea234a07de3084d22"
        }
    ],
    "synonyms": [],
    "m_Precision": 0,
    "m_PreviewExpanded": true,
    "m_DismissedVersion": 0,
    "m_PreviewMode": 0,
    "m_CustomColors": {
        "m_SerializableColors": []
    },
    "m_SerializedDescriptor": "VertexDescription.Normal"
}

{
    "m_SGVersion": 0,
    "m_Type": "UnityEditor.ShaderGraph.PropertyNode",
    "m_ObjectId": "2de0a7f394a54bfc8b356f9b579dc837",
    "m_Group": {
        "m_Id": ""
    },
    "m_Name": "Property",
    "m_DrawState": {
        "m_Expanded": true,
        "m_Position": {
            "serializedVersion": "2",
            "x": 198.72064208984376,
            "y": 818.5120849609375,
            "width": 131.1999969482422,
            "height": 33.599853515625
        }
    },
    "m_Slots": [
        {
            "m_Id": "edb9b42225e6411787f5b82a74b85fce"
        }
    ],
    "synonyms": [],
    "m_Precision": 0,
    "m_PreviewExpanded": true,
    "m_DismissedVersion": 0,
    "m_PreviewMode": 0,
    "m_CustomColors": {
        "m_SerializableColors": []
    },
    "m_Property": {
        "m_Id": "85a81390ba2544da963431f6b5cf7993"
    }
}

{
    "m_SGVersion": 0,
    "m_Type": "UnityEditor.ShaderGraph.DynamicValueMaterialSlot",
    "m_ObjectId": "339ee5fefa0d467eb6169b5429804492",
    "m_Id": 2,
    "m_DisplayName": "Out",
    "m_SlotType": 1,
    "m_Hidden": false,
    "m_ShaderOutputName": "Out",
    "m_StageCapability": 3,
    "m_Value": {
        "e00": 0.0,
        "e01": 0.0,
        "e02": 0.0,
        "e03": 0.0,
        "e10": 0.0,
        "e11": 0.0,
        "e12": 0.0,
        "e13": 0.0,
        "e20": 0.0,
        "e21": 0.0,
        "e22": 0.0,
        "e23": 0.0,
        "e30": 0.0,
        "e31": 0.0,
        "e32": 0.0,
        "e33": 0.0
    },
    "m_DefaultValue": {
        "e00": 1.0,
        "e01": 0.0,
        "e02": 0.0,
        "e03": 0.0,
        "e10": 0.0,
        "e11": 1.0,
        "e12": 0.0,
        "e13": 0.0,
        "e20": 0.0,
        "e21": 0.0,
        "e22": 1.0,
        "e23": 0.0,
        "e30": 0.0,
        "e31": 0.0,
        "e32": 0.0,
        "e33": 1.0
    }
}

{
    "m_SGVersion": 0,
    "m_Type": "UnityEditor.ShaderGraph.BlockNode",
    "m_ObjectId": "3650efa05ece421cb501cb558d70c607",
    "m_Group": {
        "m_Id": ""
    },
    "m_Name": "SurfaceDescription.Alpha",
    "m_DrawState": {
        "m_Expanded": true,
        "m_Position": {
            "serializedVersion": "2",
            "x": 0.0,
            "y": 0.0,
            "width": 0.0,
            "height": 0.0
        }
    },
    "m_Slots": [
        {
            "m_Id": "d7a7a5600dcd448fbed08f0be5c21f56"
        }
    ],
    "synonyms": [],
    "m_Precision": 0,
    "m_PreviewExpanded": true,
    "m_DismissedVersion": 0,
    "m_PreviewMode": 0,
    "m_CustomColors": {
        "m_SerializableColors": []
    },
    "m_SerializedDescriptor": "SurfaceDescription.Alpha"
}

{
    "m_SGVersion": 0,
    "m_Type": "UnityEditor.ShaderGraph.DynamicValueMaterialSlot",
    "m_ObjectId": "3895d1b976e94e9eb42d28122485354b",
    "m_Id": 1,
    "m_DisplayName": "B",
    "m_SlotType": 0,
    "m_Hidden": false,
    "m_ShaderOutputName": "B",
    "m_StageCapability": 3,
    "m_Value": {
        "e00": 2.0,
        "e01": 2.0,
        "e02": 2.0,
        "e03": 2.0,
        "e10": 2.0,
        "e11": 2.0,
        "e12": 2.0,
        "e13": 2.0,
        "e20": 2.0,
        "e21": 2.0,
        "e22": 2.0,
        "e23": 2.0,
        "e30": 2.0,
        "e31": 2.0,
        "e32": 2.0,
        "e33": 2.0
    },
    "m_DefaultValue": {
        "e00": 1.0,
        "e01": 0.0,
        "e02": 0.0,
        "e03": 0.0,
        "e10": 0.0,
        "e11": 1.0,
        "e12": 0.0,
        "e13": 0.0,
        "e20": 0.0,
        "e21": 0.0,
        "e22": 1.0,
        "e23": 0.0,
        "e30": 0.0,
        "e31": 0.0,
        "e32": 0.0,
        "e33": 1.0
    }
}

{
    "m_SGVersion": 0,
    "m_Type": "UnityEditor.ShaderGraph.ColorRGBMaterialSlot",
    "m_ObjectId": "38de52233f0d4726977fe59fab15d7ea",
    "m_Id": 0,
    "m_DisplayName": "Base Color",
    "m_SlotType": 0,
    "m_Hidden": false,
    "m_ShaderOutputName": "BaseColor",
    "m_StageCapability": 2,
    "m_Value": {
        "x": 1.0,
        "y": 1.0,
        "z": 1.0
    },
    "m_DefaultValue": {
        "x": 0.0,
        "y": 0.0,
        "z": 0.0
    },
    "m_Labels": [],
    "m_ColorMode": 0,
    "m_DefaultColor": {
        "r": 0.5,
        "g": 0.5,
        "b": 0.5,
        "a": 1.0
    }
}

{
    "m_SGVersion": 0,
    "m_Type": "UnityEditor.ShaderGraph.DynamicValueMaterialSlot",
    "m_ObjectId": "3a539cdb7f6e4fd28aa18d559b3440c3",
    "m_Id": 0,
    "m_DisplayName": "A",
    "m_SlotType": 0,
    "m_Hidden": false,
    "m_ShaderOutputName": "A",
    "m_StageCapability": 3,
    "m_Value": {
        "e00": -1.0,
        "e01": 0.0,
        "e02": 0.0,
        "e03": 0.0,
        "e10": 0.0,
        "e11": 0.0,
        "e12": 0.0,
        "e13": 0.0,
        "e20": 0.0,
        "e21": 0.0,
        "e22": 0.0,
        "e23": 0.0,
        "e30": 0.0,
        "e31": 0.0,
        "e32": 0.0,
        "e33": 0.0
    },
    "m_DefaultValue": {
        "e00": 1.0,
        "e01": 0.0,
        "e02": 0.0,
        "e03": 0.0,
        "e10": 0.0,
        "e11": 1.0,
        "e12": 0.0,
        "e13": 0.0,
        "e20": 0.0,
        "e21": 0.0,
        "e22": 1.0,
        "e23": 0.0,
        "e30": 0.0,
        "e31": 0.0,
        "e32": 0.0,
        "e33": 1.0
    }
}

{
    "m_SGVersion": 0,
    "m_Type": "UnityEditor.ShaderGraph.BlockNode",
    "m_ObjectId": "3bc5b61ea76147b188234731cdb121a9",
    "m_Group": {
        "m_Id": ""
    },
    "m_Name": "SurfaceDescription.Metallic",
    "m_DrawState": {
        "m_Expanded": true,
        "m_Position": {
            "serializedVersion": "2",
            "x": 0.0,
            "y": 0.0,
            "width": 0.0,
            "height": 0.0
        }
    },
    "m_Slots": [
        {
            "m_Id": "864f3299ac594239bc4f273f547ac04d"
        }
    ],
    "synonyms": [],
    "m_Precision": 0,
    "m_PreviewExpanded": true,
    "m_DismissedVersion": 0,
    "m_PreviewMode": 0,
    "m_CustomColors": {
        "m_SerializableColors": []
    },
    "m_SerializedDescriptor": "SurfaceDescription.Metallic"
}

{
    "m_SGVersion": 0,
    "m_Type": "UnityEditor.ShaderGraph.Vector1MaterialSlot",
    "m_ObjectId": "3f5969acac054fab9f02257d44e371c9",
    "m_Id": 1021171209,
    "m_DisplayName": "speed",
    "m_SlotType": 0,
    "m_Hidden": false,
    "m_ShaderOutputName": "_speed",
    "m_StageCapability": 2,
    "m_Value": 0.0,
    "m_DefaultValue": 0.0,
    "m_Labels": []
}

{
    "m_SGVersion": 0,
    "m_Type": "UnityEditor.ShaderGraph.DynamicVectorMaterialSlot",
    "m_ObjectId": "43c7c4b83ae04bcfae00c4466455f709",
    "m_Id": 2,
    "m_DisplayName": "Out",
    "m_SlotType": 1,
    "m_Hidden": false,
    "m_ShaderOutputName": "Out",
    "m_StageCapability": 3,
    "m_Value": {
        "x": 0.0,
        "y": 0.0,
        "z": 0.0,
        "w": 0.0
    },
    "m_DefaultValue": {
        "x": 0.0,
        "y": 0.0,
        "z": 0.0,
        "w": 0.0
    }
}

{
    "m_SGVersion": 0,
    "m_Type": "UnityEditor.ShaderGraph.SplitNode",
    "m_ObjectId": "470ed99b68a34702b367afb72b9fd2eb",
    "m_Group": {
        "m_Id": ""
    },
    "m_Name": "Split",
    "m_DrawState": {
        "m_Expanded": true,
        "m_Position": {
            "serializedVersion": "2",
            "x": 957.1207275390625,
            "y": 818.511962890625,
            "width": 119.20001220703125,
            "height": 148.7999267578125
        }
    },
    "m_Slots": [
        {
            "m_Id": "6a5ed3299ae84ea6ae10697656977293"
        },
        {
            "m_Id": "a37385a679ae408190f0bd954d9e6cd6"
        },
        {
            "m_Id": "6784e48336cf4d32a01b5dcd7361e897"
        },
        {
            "m_Id": "a82e4c79507940a09c0c9fc07ad1d0ad"
        },
        {
            "m_Id": "70b2d93eb91544d2853a71ca18b362ec"
        }
    ],
    "synonyms": [
        "separate"
    ],
    "m_Precision": 0,
    "m_PreviewExpanded": true,
    "m_DismissedVersion": 0,
    "m_PreviewMode": 0,
    "m_CustomColors": {
        "m_SerializableColors": []
    }
}

{
    "m_SGVersion": 3,
    "m_Type": "UnityEditor.ShaderGraph.Internal.ColorShaderProperty",
    "m_ObjectId": "507af90bcd6e46c3be1c0c2ccd921826",
    "m_Guid": {
        "m_GuidSerialized": "9bb62912-06b1-4da5-9e2e-1eabe7991a74"
    },
    "m_Name": "tint",
    "m_DefaultRefNameVersion": 1,
    "m_RefNameGeneratedByDisplayName": "tint",
    "m_DefaultReferenceName": "_tint",
    "m_OverrideReferenceName": "",
    "m_GeneratePropertyBlock": true,
    "m_UseCustomSlotLabel": false,
    "m_CustomSlotLabel": "",
    "m_DismissedVersion": 0,
    "m_Precision": 0,
    "overrideHLSLDeclaration": false,
    "hlslDeclarationOverride": 0,
    "m_Hidden": false,
    "m_Value": {
        "r": 1.0,
        "g": 1.0,
        "b": 1.0,
        "a": 1.0
    },
    "isMainColor": false,
    "m_ColorMode": 0
}

{
    "m_SGVersion": 0,
    "m_Type": "UnityEditor.ShaderGraph.Vector1MaterialSlot",
    "m_ObjectId": "55d12734fb9c4c5b9ed8c237e7ccfe0c",
    "m_Id": 0,
    "m_DisplayName": "speed",
    "m_SlotType": 1,
    "m_Hidden": false,
    "m_ShaderOutputName": "Out",
    "m_StageCapability": 3,
    "m_Value": 0.0,
    "m_DefaultValue": 0.0,
    "m_Labels": []
}

{
    "m_SGVersion": 0,
    "m_Type": "UnityEditor.ShaderGraph.NormalMaterialSlot",
    "m_ObjectId": "55df6659aed54acca34a014387e62d87",
    "m_Id": 0,
    "m_DisplayName": "Normal (Tangent Space)",
    "m_SlotType": 0,
    "m_Hidden": false,
    "m_ShaderOutputName": "NormalTS",
    "m_StageCapability": 2,
    "m_Value": {
        "x": 0.0,
        "y": 0.0,
        "z": 0.0
    },
    "m_DefaultValue": {
        "x": 0.0,
        "y": 0.0,
        "z": 0.0
    },
    "m_Labels": [],
    "m_Space": 3
}

{
    "m_SGVersion": 0,
    "m_Type": "UnityEditor.ShaderGraph.PropertyNode",
    "m_ObjectId": "586b8b1e368a4f6fb628ccec3a796a89",
    "m_Group": {
        "m_Id": ""
    },
    "m_Name": "Property",
    "m_DrawState": {
        "m_Expanded": true,
        "m_Position": {
            "serializedVersion": "2",
            "x": -2318.0,
            "y": 1303.3333740234375,
            "width": 105.333251953125,
            "height": 36.0
        }
    },
    "m_Slots": [
        {
            "m_Id": "04fefad1bacc4478bbee686d7484d526"
        }
    ],
    "synonyms": [],
    "m_Precision": 0,
    "m_PreviewExpanded": true,
    "m_DismissedVersion": 0,
    "m_PreviewMode": 0,
    "m_CustomColors": {
        "m_SerializableColors": []
    },
    "m_Property": {
        "m_Id": "9c422c768bc149d0b0b63badbe650ef4"
    }
}

{
    "m_SGVersion": 0,
    "m_Type": "UnityEditor.ShaderGraph.SubGraphNode",
    "m_ObjectId": "5a252350c5cd4b83aa76b4244b2db916",
    "m_Group": {
        "m_Id": ""
    },
    "m_Name": "Enemy 7",
    "m_DrawState": {
        "m_Expanded": true,
        "m_Position": {
            "serializedVersion": "2",
            "x": -1555.9998779296875,
            "y": 1519.9998779296875,
            "width": 209.3333740234375,
            "height": 352.0
        }
    },
    "m_Slots": [
        {
            "m_Id": "d2034350d23a4eb0ba673bfba3e45b20"
        },
        {
            "m_Id": "aedb3f436f794361b1f6a031a47d36b3"
        },
        {
            "m_Id": "9f556db905a247b2a08558ae86e79ae0"
        },
        {
            "m_Id": "7cd34088bf444f64afa8eb36f5b27a3b"
        }
    ],
    "synonyms": [],
    "m_Precision": 0,
    "m_PreviewExpanded": true,
    "m_DismissedVersion": 0,
    "m_PreviewMode": 0,
    "m_CustomColors": {
        "m_SerializableColors": []
    },
    "m_SerializedSubGraph": "{\n    \"subGraph\": {\n        \"fileID\": -5475051401550479605,\n        \"guid\": \"82c1e6795611a49409433c0075397d70\",\n        \"type\": 3\n    }\n}",
    "m_PropertyGuids": [
        "f75d7cf7-129c-4b84-b939-86d5db818255",
        "700ee305-4cef-4b79-86ec-5b6a152d8b51",
        "73169d5c-1a05-47d3-bc07-478525757b9c",
        "87302ed7-d745-4679-a2e9-06a6ed8c17c8",
        "ae32b6d9-e49f-4add-980d-306bdb14bbfc"
    ],
    "m_PropertyIds": [
        1021171209,
        10972793,
        771356096,
        -1353147171,
        1935952645
    ],
    "m_Dropdowns": [],
    "m_DropdownSelectedEntries": []
}

{
    "m_SGVersion": 0,
    "m_Type": "UnityEditor.ShaderGraph.Vector1MaterialSlot",
    "m_ObjectId": "5eba02f23e3f4dc29a4c42640cb75698",
    "m_Id": 10972793,
    "m_DisplayName": "zoom",
    "m_SlotType": 0,
    "m_Hidden": false,
    "m_ShaderOutputName": "_zoom",
    "m_StageCapability": 2,
    "m_Value": 0.0,
    "m_DefaultValue": 0.0,
    "m_Labels": []
}

{
    "m_SGVersion": 0,
    "m_Type": "UnityEditor.ShaderGraph.BlockNode",
    "m_ObjectId": "64822a7679cb4c33afacb0cc6203424f",
    "m_Group": {
        "m_Id": ""
    },
    "m_Name": "VertexDescription.Position",
    "m_DrawState": {
        "m_Expanded": true,
        "m_Position": {
            "serializedVersion": "2",
            "x": 0.0,
            "y": 0.0,
            "width": 0.0,
            "height": 0.0
        }
    },
    "m_Slots": [
        {
            "m_Id": "b01f5d48022f47cc81cdbccdce89424e"
        }
    ],
    "synonyms": [],
    "m_Precision": 0,
    "m_PreviewExpanded": true,
    "m_DismissedVersion": 0,
    "m_PreviewMode": 0,
    "m_CustomColors": {
        "m_SerializableColors": []
    },
    "m_SerializedDescriptor": "VertexDescription.Position"
}

{
    "m_SGVersion": 0,
    "m_Type": "UnityEditor.ShaderGraph.Vector1MaterialSlot",
    "m_ObjectId": "6784e48336cf4d32a01b5dcd7361e897",
    "m_Id": 2,
    "m_DisplayName": "G",
    "m_SlotType": 1,
    "m_Hidden": false,
    "m_ShaderOutputName": "G",
    "m_StageCapability": 3,
    "m_Value": 0.0,
    "m_DefaultValue": 0.0,
    "m_Labels": []
}

{
    "m_SGVersion": 0,
    "m_Type": "UnityEditor.ShaderGraph.DynamicVectorMaterialSlot",
    "m_ObjectId": "6a5ed3299ae84ea6ae10697656977293",
    "m_Id": 0,
    "m_DisplayName": "In",
    "m_SlotType": 0,
    "m_Hidden": false,
    "m_ShaderOutputName": "In",
    "m_StageCapability": 3,
    "m_Value": {
        "x": 0.0,
        "y": 0.0,
        "z": 0.0,
        "w": 0.0
    },
    "m_DefaultValue": {
        "x": 0.0,
        "y": 0.0,
        "z": 0.0,
        "w": 0.0
    }
}

{
    "m_SGVersion": 0,
    "m_Type": "UnityEditor.ShaderGraph.DynamicValueMaterialSlot",
    "m_ObjectId": "6eae6e9663414557ad785c451a69d63a",
    "m_Id": 0,
    "m_DisplayName": "A",
    "m_SlotType": 0,
    "m_Hidden": false,
    "m_ShaderOutputName": "A",
    "m_StageCapability": 3,
    "m_Value": {
        "e00": 0.0,
        "e01": 0.0,
        "e02": 0.0,
        "e03": 0.0,
        "e10": 0.0,
        "e11": 0.0,
        "e12": 0.0,
        "e13": 0.0,
        "e20": 0.0,
        "e21": 0.0,
        "e22": 0.0,
        "e23": 0.0,
        "e30": 0.0,
        "e31": 0.0,
        "e32": 0.0,
        "e33": 0.0
    },
    "m_DefaultValue": {
        "e00": 1.0,
        "e01": 0.0,
        "e02": 0.0,
        "e03": 0.0,
        "e10": 0.0,
        "e11": 1.0,
        "e12": 0.0,
        "e13": 0.0,
        "e20": 0.0,
        "e21": 0.0,
        "e22": 1.0,
        "e23": 0.0,
        "e30": 0.0,
        "e31": 0.0,
        "e32": 0.0,
        "e33": 1.0
    }
}

{
    "m_SGVersion": 0,
    "m_Type": "UnityEditor.ShaderGraph.Vector1MaterialSlot",
    "m_ObjectId": "70b2d93eb91544d2853a71ca18b362ec",
    "m_Id": 4,
    "m_DisplayName": "A",
    "m_SlotType": 1,
    "m_Hidden": false,
    "m_ShaderOutputName": "A",
    "m_StageCapability": 3,
    "m_Value": 0.0,
    "m_DefaultValue": 0.0,
    "m_Labels": []
}

{
    "m_SGVersion": 0,
    "m_Type": "UnityEditor.ShaderGraph.PropertyNode",
    "m_ObjectId": "725556c68ece4a819ae10d25b7498abf",
    "m_Group": {
        "m_Id": ""
    },
    "m_Name": "Property",
    "m_DrawState": {
        "m_Expanded": true,
        "m_Position": {
            "serializedVersion": "2",
            "x": -2318.0,
            "y": 1267.3333740234375,
            "width": 108.666748046875,
            "height": 36.0
        }
    },
    "m_Slots": [
        {
            "m_Id": "55d12734fb9c4c5b9ed8c237e7ccfe0c"
        }
    ],
    "synonyms": [],
    "m_Precision": 0,
    "m_PreviewExpanded": true,
    "m_DismissedVersion": 0,
    "m_PreviewMode": 0,
    "m_CustomColors": {
        "m_SerializableColors": []
    },
    "m_Property": {
        "m_Id": "89b6e63ee76a49e7b9e719ff4f592c48"
    }
}

{
    "m_SGVersion": 0,
    "m_Type": "UnityEditor.ShaderGraph.Vector3MaterialSlot",
    "m_ObjectId": "7cd34088bf444f64afa8eb36f5b27a3b",
    "m_Id": 0,
    "m_DisplayName": "color",
    "m_SlotType": 1,
    "m_Hidden": false,
    "m_ShaderOutputName": "color",
    "m_StageCapability": 2,
    "m_Value": {
        "x": 0.0,
        "y": 0.0,
        "z": 0.0
    },
    "m_DefaultValue": {
        "x": 0.0,
        "y": 0.0,
        "z": 0.0
    },
    "m_Labels": []
}

{
    "m_SGVersion": 1,
    "m_Type": "UnityEditor.ShaderGraph.Internal.Vector1ShaderProperty",
    "m_ObjectId": "7f432fbb6f4d44649e1f2e1823cf59ae",
    "m_Guid": {
        "m_GuidSerialized": "69fdfc3a-5cd2-43f8-882f-cee5caecb1b7"
    },
    "m_Name": "brightness",
    "m_DefaultRefNameVersion": 1,
    "m_RefNameGeneratedByDisplayName": "brightness",
    "m_DefaultReferenceName": "_brightness",
    "m_OverrideReferenceName": "",
    "m_GeneratePropertyBlock": true,
    "m_UseCustomSlotLabel": false,
    "m_CustomSlotLabel": "",
    "m_DismissedVersion": 0,
    "m_Precision": 0,
    "overrideHLSLDeclaration": false,
    "hlslDeclarationOverride": 0,
    "m_Hidden": false,
    "m_Value": 4.0,
    "m_FloatType": 0,
    "m_RangeValues": {
        "x": 0.0,
        "y": 1.0
    }
}

{
    "m_SGVersion": 0,
    "m_Type": "UnityEditor.ShaderGraph.Texture2DInputMaterialSlot",
    "m_ObjectId": "8412b5dd59de438784f9fac580c9f9ae",
    "m_Id": -337072374,
    "m_DisplayName": "_MainTex",
    "m_SlotType": 0,
    "m_Hidden": false,
    "m_ShaderOutputName": "_MainTex",
    "m_StageCapability": 2,
    "m_BareResource": false,
    "m_Texture": {
        "m_SerializedTexture": "{\"texture\":{\"instanceID\":0}}",
        "m_Guid": ""
    },
    "m_DefaultType": 0
}

{
    "m_SGVersion": 0,
    "m_Type": "UnityEditor.ShaderGraph.Internal.Texture2DShaderProperty",
    "m_ObjectId": "85a81390ba2544da963431f6b5cf7993",
    "m_Guid": {
        "m_GuidSerialized": "b86336b2-5d0a-4032-8611-faee267ca270"
    },
    "m_Name": "_MainTex",
    "m_DefaultRefNameVersion": 1,
    "m_RefNameGeneratedByDisplayName": "_MainTex",
    "m_DefaultReferenceName": "_MainTex",
    "m_OverrideReferenceName": "",
    "m_GeneratePropertyBlock": true,
    "m_UseCustomSlotLabel": false,
    "m_CustomSlotLabel": "",
    "m_DismissedVersion": 0,
    "m_Precision": 0,
    "overrideHLSLDeclaration": false,
    "hlslDeclarationOverride": 0,
    "m_Hidden": false,
    "m_Value": {
        "m_SerializedTexture": "{\"texture\":{\"instanceID\":0}}",
        "m_Guid": ""
    },
    "isMainTexture": false,
    "useTilingAndOffset": false,
    "m_Modifiable": true,
    "m_DefaultType": 0
}

{
    "m_SGVersion": 0,
    "m_Type": "UnityEditor.ShaderGraph.Vector1MaterialSlot",
    "m_ObjectId": "864f3299ac594239bc4f273f547ac04d",
    "m_Id": 0,
    "m_DisplayName": "Metallic",
    "m_SlotType": 0,
    "m_Hidden": false,
    "m_ShaderOutputName": "Metallic",
    "m_StageCapability": 2,
    "m_Value": 0.0,
    "m_DefaultValue": 0.0,
    "m_Labels": []
}

{
    "m_SGVersion": 0,
    "m_Type": "UnityEditor.ShaderGraph.MultiplyNode",
    "m_ObjectId": "87118f058e114e208adb60919110c6b3",
    "m_Group": {
        "m_Id": ""
    },
    "m_Name": "Multiply",
    "m_DrawState": {
        "m_Expanded": true,
        "m_Position": {
            "serializedVersion": "2",
            "x": 1306.66650390625,
            "y": 1186.6666259765625,
            "width": 209.3333740234375,
            "height": 304.0001220703125
        }
    },
    "m_Slots": [
        {
            "m_Id": "f6a67ffd562644b2ac6637ca340d1a29"
        },
        {
            "m_Id": "c26ecd6b6549488f9d18346e323bc06e"
        },
        {
            "m_Id": "339ee5fefa0d467eb6169b5429804492"
        }
    ],
    "synonyms": [
        "multiplication",
        "times",
        "x"
    ],
    "m_Precision": 0,
    "m_PreviewExpanded": true,
    "m_DismissedVersion": 0,
    "m_PreviewMode": 0,
    "m_CustomColors": {
        "m_SerializableColors": []
    }
}

{
    "m_SGVersion": 1,
    "m_Type": "UnityEditor.ShaderGraph.Internal.Vector1ShaderProperty",
    "m_ObjectId": "89b6e63ee76a49e7b9e719ff4f592c48",
    "m_Guid": {
        "m_GuidSerialized": "727597f0-55f5-4ab9-8a48-a63036ab5fa5"
    },
    "m_Name": "speed",
    "m_DefaultRefNameVersion": 1,
    "m_RefNameGeneratedByDisplayName": "speed",
    "m_DefaultReferenceName": "_speed",
    "m_OverrideReferenceName": "",
    "m_GeneratePropertyBlock": true,
    "m_UseCustomSlotLabel": false,
    "m_CustomSlotLabel": "",
    "m_DismissedVersion": 0,
    "m_Precision": 0,
    "overrideHLSLDeclaration": false,
    "hlslDeclarationOverride": 0,
    "m_Hidden": false,
    "m_Value": 0.10000000149011612,
    "m_FloatType": 0,
    "m_RangeValues": {
        "x": 0.0,
        "y": 1.0
    }
}

{
    "m_SGVersion": 0,
    "m_Type": "UnityEditor.ShaderGraph.BlockNode",
    "m_ObjectId": "8bdb102a5ccb4b34b5af559b8dd785a4",
    "m_Group": {
        "m_Id": ""
    },
    "m_Name": "SurfaceDescription.Smoothness",
    "m_DrawState": {
        "m_Expanded": true,
        "m_Position": {
            "serializedVersion": "2",
            "x": 0.0,
            "y": 0.0,
            "width": 0.0,
            "height": 0.0
        }
    },
    "m_Slots": [
        {
            "m_Id": "dfa613117d25462a97f77ff35928b171"
        }
    ],
    "synonyms": [],
    "m_Precision": 0,
    "m_PreviewExpanded": true,
    "m_DismissedVersion": 0,
    "m_PreviewMode": 0,
    "m_CustomColors": {
        "m_SerializableColors": []
    },
    "m_SerializedDescriptor": "SurfaceDescription.Smoothness"
}

{
    "m_SGVersion": 1,
    "m_Type": "UnityEditor.ShaderGraph.Internal.Vector1ShaderProperty",
    "m_ObjectId": "9c422c768bc149d0b0b63badbe650ef4",
    "m_Guid": {
        "m_GuidSerialized": "49f82fa4-b56d-4915-85b2-4a92db078e86"
    },
    "m_Name": "zoom",
    "m_DefaultRefNameVersion": 1,
    "m_RefNameGeneratedByDisplayName": "zoom",
    "m_DefaultReferenceName": "_zoom",
    "m_OverrideReferenceName": "",
    "m_GeneratePropertyBlock": true,
    "m_UseCustomSlotLabel": false,
    "m_CustomSlotLabel": "",
    "m_DismissedVersion": 0,
    "m_Precision": 0,
    "overrideHLSLDeclaration": false,
    "hlslDeclarationOverride": 0,
    "m_Hidden": false,
    "m_Value": 10.0,
    "m_FloatType": 0,
    "m_RangeValues": {
        "x": 0.0,
        "y": 1.0
    }
}

{
    "m_SGVersion": 0,
    "m_Type": "UnityEditor.ShaderGraph.DynamicValueMaterialSlot",
    "m_ObjectId": "9d411c7c121648e09d73863dbede06d4",
    "m_Id": 1,
    "m_DisplayName": "B",
    "m_SlotType": 0,
    "m_Hidden": false,
    "m_ShaderOutputName": "B",
    "m_StageCapability": 3,
    "m_Value": {
        "e00": 2.0,
        "e01": 2.0,
        "e02": 2.0,
        "e03": 2.0,
        "e10": 2.0,
        "e11": 2.0,
        "e12": 2.0,
        "e13": 2.0,
        "e20": 2.0,
        "e21": 2.0,
        "e22": 2.0,
        "e23": 2.0,
        "e30": 2.0,
        "e31": 2.0,
        "e32": 2.0,
        "e33": 2.0
    },
    "m_DefaultValue": {
        "e00": 1.0,
        "e01": 0.0,
        "e02": 0.0,
        "e03": 0.0,
        "e10": 0.0,
        "e11": 1.0,
        "e12": 0.0,
        "e13": 0.0,
        "e20": 0.0,
        "e21": 0.0,
        "e22": 1.0,
        "e23": 0.0,
        "e30": 0.0,
        "e31": 0.0,
        "e32": 0.0,
        "e33": 1.0
    }
}

{
    "m_SGVersion": 0,
    "m_Type": "UnityEditor.ShaderGraph.Vector1MaterialSlot",
    "m_ObjectId": "9f556db905a247b2a08558ae86e79ae0",
    "m_Id": -1353147171,
    "m_DisplayName": "timeOffset",
    "m_SlotType": 0,
    "m_Hidden": false,
    "m_ShaderOutputName": "_timeOffset",
    "m_StageCapability": 2,
    "m_Value": 1.0,
    "m_DefaultValue": 0.0,
    "m_Labels": []
}

{
    "m_SGVersion": 0,
    "m_Type": "UnityEditor.ShaderGraph.NormalMaterialSlot",
    "m_ObjectId": "a086ff5bf93245cea234a07de3084d22",
    "m_Id": 0,
    "m_DisplayName": "Normal",
    "m_SlotType": 0,
    "m_Hidden": false,
    "m_ShaderOutputName": "Normal",
    "m_StageCapability": 1,
    "m_Value": {
        "x": 0.0,
        "y": 0.0,
        "z": 0.0
    },
    "m_DefaultValue": {
        "x": 0.0,
        "y": 0.0,
        "z": 0.0
    },
    "m_Labels": [],
    "m_Space": 0
}

{
    "m_SGVersion": 0,
    "m_Type": "UnityEditor.ShaderGraph.BlockNode",
    "m_ObjectId": "a1196f6938ee4c1298192ea2831c28b1",
    "m_Group": {
        "m_Id": ""
    },
    "m_Name": "VertexDescription.Tangent",
    "m_DrawState": {
        "m_Expanded": true,
        "m_Position": {
            "serializedVersion": "2",
            "x": 0.0,
            "y": 0.0,
            "width": 0.0,
            "height": 0.0
        }
    },
    "m_Slots": [
        {
            "m_Id": "24bdfba492b34489bdb637109b2a18bc"
        }
    ],
    "synonyms": [],
    "m_Precision": 0,
    "m_PreviewExpanded": true,
    "m_DismissedVersion": 0,
    "m_PreviewMode": 0,
    "m_CustomColors": {
        "m_SerializableColors": []
    },
    "m_SerializedDescriptor": "VertexDescription.Tangent"
}

{
    "m_SGVersion": 0,
    "m_Type": "UnityEditor.ShaderGraph.Vector1MaterialSlot",
    "m_ObjectId": "a37385a679ae408190f0bd954d9e6cd6",
    "m_Id": 1,
    "m_DisplayName": "R",
    "m_SlotType": 1,
    "m_Hidden": false,
    "m_ShaderOutputName": "R",
    "m_StageCapability": 3,
    "m_Value": 0.0,
    "m_DefaultValue": 0.0,
    "m_Labels": []
}

{
    "m_SGVersion": 0,
    "m_Type": "UnityEditor.ShaderGraph.BlockNode",
    "m_ObjectId": "a5cda87e68f640db9b737c7b8187c4df",
    "m_Group": {
        "m_Id": ""
    },
    "m_Name": "SurfaceDescription.NormalTS",
    "m_DrawState": {
        "m_Expanded": true,
        "m_Position": {
            "serializedVersion": "2",
            "x": 0.0,
            "y": 0.0,
            "width": 0.0,
            "height": 0.0
        }
    },
    "m_Slots": [
        {
            "m_Id": "55df6659aed54acca34a014387e62d87"
        }
    ],
    "synonyms": [],
    "m_Precision": 0,
    "m_PreviewExpanded": true,
    "m_DismissedVersion": 0,
    "m_PreviewMode": 0,
    "m_CustomColors": {
        "m_SerializableColors": []
    },
    "m_SerializedDescriptor": "SurfaceDescription.NormalTS"
}

{
    "m_SGVersion": 2,
    "m_Type": "UnityEditor.Rendering.Universal.ShaderGraph.UniversalLitSubTarget",
    "m_ObjectId": "a623e2a9379a45c886d5f3bd222f2304",
    "m_WorkflowMode": 1,
    "m_NormalDropOffSpace": 0,
    "m_ClearCoat": false,
    "m_BlendModePreserveSpecular": true
}

{
    "m_SGVersion": 0,
    "m_Type": "UnityEditor.ShaderGraph.BlockNode",
    "m_ObjectId": "a79627946b114160afaef5e16a33b15a",
    "m_Group": {
        "m_Id": ""
    },
    "m_Name": "SurfaceDescription.Emission",
    "m_DrawState": {
        "m_Expanded": true,
        "m_Position": {
            "serializedVersion": "2",
            "x": 0.0,
            "y": 0.0,
            "width": 0.0,
            "height": 0.0
        }
    },
    "m_Slots": [
        {
            "m_Id": "fe62cb0947e84058bef2189ea9579eeb"
        }
    ],
    "synonyms": [],
    "m_Precision": 0,
    "m_PreviewExpanded": true,
    "m_DismissedVersion": 0,
    "m_PreviewMode": 0,
    "m_CustomColors": {
        "m_SerializableColors": []
    },
    "m_SerializedDescriptor": "SurfaceDescription.Emission"
}

{
    "m_SGVersion": 0,
    "m_Type": "UnityEditor.ShaderGraph.Vector1MaterialSlot",
    "m_ObjectId": "a82e4c79507940a09c0c9fc07ad1d0ad",
    "m_Id": 3,
    "m_DisplayName": "B",
    "m_SlotType": 1,
    "m_Hidden": false,
    "m_ShaderOutputName": "B",
    "m_StageCapability": 3,
    "m_Value": 0.0,
    "m_DefaultValue": 0.0,
    "m_Labels": []
}

{
    "m_SGVersion": 0,
    "m_Type": "UnityEditor.ShaderGraph.SubGraphNode",
    "m_ObjectId": "aa27dcd5615c4ee58582746883ab86d2",
    "m_Group": {
        "m_Id": ""
    },
    "m_Name": "Transparent Texture2D With Brightness",
    "m_DrawState": {
        "m_Expanded": true,
        "m_Position": {
            "serializedVersion": "2",
            "x": 463.5205993652344,
            "y": 818.511962890625,
            "width": 270.4000244140625,
            "height": 301.5999755859375
        }
    },
    "m_Slots": [
        {
            "m_Id": "8412b5dd59de438784f9fac580c9f9ae"
        },
        {
            "m_Id": "e736577a233640d288da50ae44ea5e49"
        },
        {
            "m_Id": "ae99213e83954cbc9af206a7109b1277"
        }
    ],
    "synonyms": [],
    "m_Precision": 0,
    "m_PreviewExpanded": true,
    "m_DismissedVersion": 0,
    "m_PreviewMode": 0,
    "m_CustomColors": {
        "m_SerializableColors": []
    },
    "m_SerializedSubGraph": "{\n    \"subGraph\": {\n        \"fileID\": -5475051401550479605,\n        \"guid\": \"5def62386832f924399f4813c7f2442d\",\n        \"type\": 3\n    }\n}",
    "m_PropertyGuids": [
        "4a6ab7b9-32ff-4ed7-ad23-8fc3e109da2c",
        "052b38a6-044f-4381-8328-22e562fdea3b"
    ],
    "m_PropertyIds": [
        -337072374,
        -1738348280
    ],
    "m_Dropdowns": [],
    "m_DropdownSelectedEntries": []
}

{
    "m_SGVersion": 0,
    "m_Type": "UnityEditor.ShaderGraph.SubGraphNode",
    "m_ObjectId": "aab210f13cf141a687bb7f299df5f9b7",
    "m_Group": {
        "m_Id": ""
    },
    "m_Name": "Enemy 7",
    "m_DrawState": {
        "m_Expanded": true,
        "m_Position": {
            "serializedVersion": "2",
            "x": -1556.0,
            "y": 1168.3333740234375,
            "width": 0.0,
            "height": 0.0
        }
    },
    "m_Slots": [
        {
            "m_Id": "3f5969acac054fab9f02257d44e371c9"
        },
        {
            "m_Id": "5eba02f23e3f4dc29a4c42640cb75698"
        },
        {
            "m_Id": "b3d80556d5d84341a77ab2a01ebb79bc"
        },
        {
            "m_Id": "c540c049fad94afda102e1b6e2cb5372"
        }
    ],
    "synonyms": [],
    "m_Precision": 0,
    "m_PreviewExpanded": true,
    "m_DismissedVersion": 0,
    "m_PreviewMode": 0,
    "m_CustomColors": {
        "m_SerializableColors": []
    },
    "m_SerializedSubGraph": "{\n    \"subGraph\": {\n        \"fileID\": -5475051401550479605,\n        \"guid\": \"82c1e6795611a49409433c0075397d70\",\n        \"type\": 3\n    }\n}",
    "m_PropertyGuids": [
        "f75d7cf7-129c-4b84-b939-86d5db818255",
        "700ee305-4cef-4b79-86ec-5b6a152d8b51",
        "73169d5c-1a05-47d3-bc07-478525757b9c",
        "87302ed7-d745-4679-a2e9-06a6ed8c17c8",
        "ae32b6d9-e49f-4add-980d-306bdb14bbfc"
    ],
    "m_PropertyIds": [
        1021171209,
        10972793,
        771356096,
        -1353147171,
        1935952645
    ],
    "m_Dropdowns": [],
    "m_DropdownSelectedEntries": []
}

{
    "m_SGVersion": 0,
    "m_Type": "UnityEditor.ShaderGraph.Vector4MaterialSlot",
    "m_ObjectId": "ae99213e83954cbc9af206a7109b1277",
    "m_Id": 2,
    "m_DisplayName": "color",
    "m_SlotType": 1,
    "m_Hidden": false,
    "m_ShaderOutputName": "color",
    "m_StageCapability": 2,
    "m_Value": {
        "x": 0.0,
        "y": 0.0,
        "z": 0.0,
        "w": 0.0
    },
    "m_DefaultValue": {
        "x": 0.0,
        "y": 0.0,
        "z": 0.0,
        "w": 0.0
    },
    "m_Labels": []
}

{
    "m_SGVersion": 0,
    "m_Type": "UnityEditor.ShaderGraph.Vector1MaterialSlot",
    "m_ObjectId": "aedb3f436f794361b1f6a031a47d36b3",
    "m_Id": 10972793,
    "m_DisplayName": "zoom",
    "m_SlotType": 0,
    "m_Hidden": false,
    "m_ShaderOutputName": "_zoom",
    "m_StageCapability": 2,
    "m_Value": 0.0,
    "m_DefaultValue": 0.0,
    "m_Labels": []
}

{
    "m_SGVersion": 0,
    "m_Type": "UnityEditor.ShaderGraph.PositionMaterialSlot",
    "m_ObjectId": "b01f5d48022f47cc81cdbccdce89424e",
    "m_Id": 0,
    "m_DisplayName": "Position",
    "m_SlotType": 0,
    "m_Hidden": false,
    "m_ShaderOutputName": "Position",
    "m_StageCapability": 1,
    "m_Value": {
        "x": 0.0,
        "y": 0.0,
        "z": 0.0
    },
    "m_DefaultValue": {
        "x": 0.0,
        "y": 0.0,
        "z": 0.0
    },
    "m_Labels": [],
    "m_Space": 0
}

{
    "m_SGVersion": 0,
    "m_Type": "UnityEditor.ShaderGraph.Vector1MaterialSlot",
    "m_ObjectId": "b3d80556d5d84341a77ab2a01ebb79bc",
    "m_Id": -1353147171,
    "m_DisplayName": "timeOffset",
    "m_SlotType": 0,
    "m_Hidden": false,
    "m_ShaderOutputName": "_timeOffset",
    "m_StageCapability": 2,
    "m_Value": 0.0,
    "m_DefaultValue": 0.0,
    "m_Labels": []
}

{
    "m_SGVersion": 0,
    "m_Type": "UnityEditor.ShaderGraph.MultiplyNode",
    "m_ObjectId": "ba3e77c8185d47eab8b1a84ec0eb6fd1",
    "m_Group": {
        "m_Id": ""
    },
    "m_Name": "Multiply",
    "m_DrawState": {
        "m_Expanded": true,
        "m_Position": {
            "serializedVersion": "2",
            "x": -2011.3333740234375,
            "y": 1520.0,
            "width": 209.3333740234375,
            "height": 304.0001220703125
        }
    },
    "m_Slots": [
        {
            "m_Id": "3a539cdb7f6e4fd28aa18d559b3440c3"
        },
        {
            "m_Id": "9d411c7c121648e09d73863dbede06d4"
        },
        {
            "m_Id": "dcfabe7c01d7472eadf9e705b312ddff"
        }
    ],
    "synonyms": [
        "multiplication",
        "times",
        "x"
    ],
    "m_Precision": 0,
    "m_PreviewExpanded": true,
    "m_DismissedVersion": 0,
    "m_PreviewMode": 0,
    "m_CustomColors": {
        "m_SerializableColors": []
    }
}

{
    "m_SGVersion": 0,
    "m_Type": "UnityEditor.ShaderGraph.BlockNode",
    "m_ObjectId": "bf20e2d586fe49f9b8fed98b555fb5e3",
    "m_Group": {
        "m_Id": ""
    },
    "m_Name": "SurfaceDescription.Occlusion",
    "m_DrawState": {
        "m_Expanded": true,
        "m_Position": {
            "serializedVersion": "2",
            "x": 0.0,
            "y": 0.0,
            "width": 0.0,
            "height": 0.0
        }
    },
    "m_Slots": [
        {
            "m_Id": "fa7080e8b8cf466ca43dfaa1bb97a38b"
        }
    ],
    "synonyms": [],
    "m_Precision": 0,
    "m_PreviewExpanded": true,
    "m_DismissedVersion": 0,
    "m_PreviewMode": 0,
    "m_CustomColors": {
        "m_SerializableColors": []
    },
    "m_SerializedDescriptor": "SurfaceDescription.Occlusion"
}

{
    "m_SGVersion": 0,
    "m_Type": "UnityEditor.ShaderGraph.DynamicValueMaterialSlot",
    "m_ObjectId": "c26ecd6b6549488f9d18346e323bc06e",
    "m_Id": 1,
    "m_DisplayName": "B",
    "m_SlotType": 0,
    "m_Hidden": false,
    "m_ShaderOutputName": "B",
    "m_StageCapability": 3,
    "m_Value": {
        "e00": 2.0,
        "e01": 2.0,
        "e02": 2.0,
        "e03": 2.0,
        "e10": 2.0,
        "e11": 2.0,
        "e12": 2.0,
        "e13": 2.0,
        "e20": 2.0,
        "e21": 2.0,
        "e22": 2.0,
        "e23": 2.0,
        "e30": 2.0,
        "e31": 2.0,
        "e32": 2.0,
        "e33": 2.0
    },
    "m_DefaultValue": {
        "e00": 1.0,
        "e01": 0.0,
        "e02": 0.0,
        "e03": 0.0,
        "e10": 0.0,
        "e11": 1.0,
        "e12": 0.0,
        "e13": 0.0,
        "e20": 0.0,
        "e21": 0.0,
        "e22": 1.0,
        "e23": 0.0,
        "e30": 0.0,
        "e31": 0.0,
        "e32": 0.0,
        "e33": 1.0
    }
}

{
    "m_SGVersion": 0,
    "m_Type": "UnityEditor.ShaderGraph.MultiplyNode",
    "m_ObjectId": "c50ba31e374c4b79bbc386ce892484b6",
    "m_Group": {
        "m_Id": ""
    },
    "m_Name": "Multiply",
    "m_DrawState": {
        "m_Expanded": true,
        "m_Position": {
            "serializedVersion": "2",
            "x": 1859.9998779296875,
            "y": 1186.666748046875,
            "width": 209.3333740234375,
            "height": 304.0
        }
    },
    "m_Slots": [
        {
            "m_Id": "6eae6e9663414557ad785c451a69d63a"
        },
        {
            "m_Id": "3895d1b976e94e9eb42d28122485354b"
        },
        {
            "m_Id": "f40868d9591e4db5af27997da4c803c3"
        }
    ],
    "synonyms": [
        "multiplication",
        "times",
        "x"
    ],
    "m_Precision": 0,
    "m_PreviewExpanded": true,
    "m_DismissedVersion": 0,
    "m_PreviewMode": 0,
    "m_CustomColors": {
        "m_SerializableColors": []
    }
}

{
    "m_SGVersion": 0,
    "m_Type": "UnityEditor.ShaderGraph.Vector3MaterialSlot",
    "m_ObjectId": "c540c049fad94afda102e1b6e2cb5372",
    "m_Id": 0,
    "m_DisplayName": "color",
    "m_SlotType": 1,
    "m_Hidden": false,
    "m_ShaderOutputName": "color",
    "m_StageCapability": 2,
    "m_Value": {
        "x": 0.0,
        "y": 0.0,
        "z": 0.0
    },
    "m_DefaultValue": {
        "x": 0.0,
        "y": 0.0,
        "z": 0.0
    },
    "m_Labels": []
}

{
    "m_SGVersion": 1,
    "m_Type": "UnityEditor.Rendering.Universal.ShaderGraph.UniversalTarget",
    "m_ObjectId": "c789d3a32ad14b109215a5a5d39f6ff5",
    "m_Datas": [],
    "m_ActiveSubTarget": {
        "m_Id": "a623e2a9379a45c886d5f3bd222f2304"
    },
    "m_AllowMaterialOverride": false,
    "m_SurfaceType": 1,
    "m_ZTestMode": 4,
    "m_ZWriteControl": 0,
    "m_AlphaMode": 0,
    "m_RenderFace": 2,
    "m_AlphaClip": false,
    "m_CastShadows": false,
    "m_ReceiveShadows": false,
    "m_AdditionalMotionVectorMode": 0,
    "m_AlembicMotionVectors": false,
    "m_SupportsLODCrossFade": false,
    "m_CustomEditorGUI": "",
    "m_SupportVFX": false
}

{
    "m_SGVersion": 0,
    "m_Type": "UnityEditor.ShaderGraph.DynamicVectorMaterialSlot",
    "m_ObjectId": "d09c21a1cddc419baaf73df28a804167",
    "m_Id": 0,
    "m_DisplayName": "A",
    "m_SlotType": 0,
    "m_Hidden": false,
    "m_ShaderOutputName": "A",
    "m_StageCapability": 3,
    "m_Value": {
        "x": 0.0,
        "y": 0.0,
        "z": 0.0,
        "w": 0.0
    },
    "m_DefaultValue": {
        "x": 0.0,
        "y": 0.0,
        "z": 0.0,
        "w": 0.0
    }
}

{
    "m_SGVersion": 0,
    "m_Type": "UnityEditor.ShaderGraph.Vector1MaterialSlot",
    "m_ObjectId": "d2034350d23a4eb0ba673bfba3e45b20",
    "m_Id": 1021171209,
    "m_DisplayName": "speed",
    "m_SlotType": 0,
    "m_Hidden": false,
    "m_ShaderOutputName": "_speed",
    "m_StageCapability": 2,
    "m_Value": 0.0,
    "m_DefaultValue": 0.0,
    "m_Labels": []
}

{
    "m_SGVersion": 0,
    "m_Type": "UnityEditor.ShaderGraph.CategoryData",
    "m_ObjectId": "d5cf08317d0b4822a742c90644e33ff8",
    "m_Name": "",
    "m_ChildObjectList": [
        {
            "m_Id": "85a81390ba2544da963431f6b5cf7993"
        },
        {
            "m_Id": "507af90bcd6e46c3be1c0c2ccd921826"
        },
        {
            "m_Id": "89b6e63ee76a49e7b9e719ff4f592c48"
        },
        {
            "m_Id": "9c422c768bc149d0b0b63badbe650ef4"
        },
        {
            "m_Id": "7f432fbb6f4d44649e1f2e1823cf59ae"
        }
    ]
}

{
    "m_SGVersion": 0,
    "m_Type": "UnityEditor.ShaderGraph.Vector1MaterialSlot",
    "m_ObjectId": "d7a7a5600dcd448fbed08f0be5c21f56",
    "m_Id": 0,
    "m_DisplayName": "Alpha",
    "m_SlotType": 0,
    "m_Hidden": false,
    "m_ShaderOutputName": "Alpha",
    "m_StageCapability": 2,
    "m_Value": 1.0,
    "m_DefaultValue": 1.0,
    "m_Labels": []
}

{
    "m_SGVersion": 0,
    "m_Type": "UnityEditor.ShaderGraph.DynamicValueMaterialSlot",
    "m_ObjectId": "dcfabe7c01d7472eadf9e705b312ddff",
    "m_Id": 2,
    "m_DisplayName": "Out",
    "m_SlotType": 1,
    "m_Hidden": false,
    "m_ShaderOutputName": "Out",
    "m_StageCapability": 3,
    "m_Value": {
        "e00": 0.0,
        "e01": 0.0,
        "e02": 0.0,
        "e03": 0.0,
        "e10": 0.0,
        "e11": 0.0,
        "e12": 0.0,
        "e13": 0.0,
        "e20": 0.0,
        "e21": 0.0,
        "e22": 0.0,
        "e23": 0.0,
        "e30": 0.0,
        "e31": 0.0,
        "e32": 0.0,
        "e33": 0.0
    },
    "m_DefaultValue": {
        "e00": 1.0,
        "e01": 0.0,
        "e02": 0.0,
        "e03": 0.0,
        "e10": 0.0,
        "e11": 1.0,
        "e12": 0.0,
        "e13": 0.0,
        "e20": 0.0,
        "e21": 0.0,
        "e22": 1.0,
        "e23": 0.0,
        "e30": 0.0,
        "e31": 0.0,
        "e32": 0.0,
        "e33": 1.0
    }
}

{
    "m_SGVersion": 0,
    "m_Type": "UnityEditor.ShaderGraph.Vector1MaterialSlot",
    "m_ObjectId": "dfa613117d25462a97f77ff35928b171",
    "m_Id": 0,
    "m_DisplayName": "Smoothness",
    "m_SlotType": 0,
    "m_Hidden": false,
    "m_ShaderOutputName": "Smoothness",
    "m_StageCapability": 2,
    "m_Value": 0.5,
    "m_DefaultValue": 0.5,
    "m_Labels": []
}

{
    "m_SGVersion": 0,
    "m_Type": "UnityEditor.ShaderGraph.Vector1MaterialSlot",
    "m_ObjectId": "e736577a233640d288da50ae44ea5e49",
    "m_Id": -1738348280,
    "m_DisplayName": "brightness",
    "m_SlotType": 0,
    "m_Hidden": false,
    "m_ShaderOutputName": "_brightness",
    "m_StageCapability": 2,
    "m_Value": 0.0,
    "m_DefaultValue": 0.0,
    "m_Labels": []
}

{
    "m_SGVersion": 0,
    "m_Type": "UnityEditor.ShaderGraph.BlockNode",
    "m_ObjectId": "e933b608b7dc4217b02681651cc6b7b2",
    "m_Group": {
        "m_Id": ""
    },
    "m_Name": "SurfaceDescription.BaseColor",
    "m_DrawState": {
        "m_Expanded": true,
        "m_Position": {
            "serializedVersion": "2",
            "x": 0.0,
            "y": 0.0,
            "width": 0.0,
            "height": 0.0
        }
    },
    "m_Slots": [
        {
            "m_Id": "38de52233f0d4726977fe59fab15d7ea"
        }
    ],
    "synonyms": [],
    "m_Precision": 0,
    "m_PreviewExpanded": true,
    "m_DismissedVersion": 0,
    "m_PreviewMode": 0,
    "m_CustomColors": {
        "m_SerializableColors": []
    },
    "m_SerializedDescriptor": "SurfaceDescription.BaseColor"
}

{
    "m_SGVersion": 0,
    "m_Type": "UnityEditor.ShaderGraph.Texture2DMaterialSlot",
    "m_ObjectId": "edb9b42225e6411787f5b82a74b85fce",
    "m_Id": 0,
    "m_DisplayName": "_MainTex",
    "m_SlotType": 1,
    "m_Hidden": false,
    "m_ShaderOutputName": "Out",
    "m_StageCapability": 3,
    "m_BareResource": false
}

{
    "m_SGVersion": 0,
    "m_Type": "UnityEditor.ShaderGraph.PropertyNode",
    "m_ObjectId": "ee04a41be0834a8c9cc30659265e40b3",
    "m_Group": {
        "m_Id": ""
    },
    "m_Name": "Property",
    "m_DrawState": {
        "m_Expanded": true,
        "m_Position": {
            "serializedVersion": "2",
            "x": 1468.0,
            "y": 1553.33349609375,
            "width": 96.0,
            "height": 35.9998779296875
        }
    },
    "m_Slots": [
        {
            "m_Id": "1951c4e058f4495facdbcc72943be6b7"
        }
    ],
    "synonyms": [],
    "m_Precision": 0,
    "m_PreviewExpanded": true,
    "m_DismissedVersion": 0,
    "m_PreviewMode": 0,
    "m_CustomColors": {
        "m_SerializableColors": []
    },
    "m_Property": {
        "m_Id": "507af90bcd6e46c3be1c0c2ccd921826"
    }
}

{
    "m_SGVersion": 0,
    "m_Type": "UnityEditor.ShaderGraph.DynamicValueMaterialSlot",
    "m_ObjectId": "f40868d9591e4db5af27997da4c803c3",
    "m_Id": 2,
    "m_DisplayName": "Out",
    "m_SlotType": 1,
    "m_Hidden": false,
    "m_ShaderOutputName": "Out",
    "m_StageCapability": 3,
    "m_Value": {
        "e00": 0.0,
        "e01": 0.0,
        "e02": 0.0,
        "e03": 0.0,
        "e10": 0.0,
        "e11": 0.0,
        "e12": 0.0,
        "e13": 0.0,
        "e20": 0.0,
        "e21": 0.0,
        "e22": 0.0,
        "e23": 0.0,
        "e30": 0.0,
        "e31": 0.0,
        "e32": 0.0,
        "e33": 0.0
    },
    "m_DefaultValue": {
        "e00": 1.0,
        "e01": 0.0,
        "e02": 0.0,
        "e03": 0.0,
        "e10": 0.0,
        "e11": 1.0,
        "e12": 0.0,
        "e13": 0.0,
        "e20": 0.0,
        "e21": 0.0,
        "e22": 1.0,
        "e23": 0.0,
        "e30": 0.0,
        "e31": 0.0,
        "e32": 0.0,
        "e33": 1.0
    }
}

{
    "m_SGVersion": 0,
    "m_Type": "UnityEditor.ShaderGraph.PropertyNode",
    "m_ObjectId": "f630cce19db347b382c7b3cd9a4caa82",
    "m_Group": {
        "m_Id": ""
    },
    "m_Name": "Property",
    "m_DrawState": {
        "m_Expanded": true,
        "m_Position": {
            "serializedVersion": "2",
            "x": 199.5206298828125,
            "y": 852.1119384765625,
            "width": 130.40000915527345,
            "height": 33.60009765625
        }
    },
    "m_Slots": [
        {
            "m_Id": "296b7b8ab44549989c9351294cfbe6b4"
        }
    ],
    "synonyms": [],
    "m_Precision": 0,
    "m_PreviewExpanded": true,
    "m_DismissedVersion": 0,
    "m_PreviewMode": 0,
    "m_CustomColors": {
        "m_SerializableColors": []
    },
    "m_Property": {
        "m_Id": "7f432fbb6f4d44649e1f2e1823cf59ae"
    }
}

{
    "m_SGVersion": 0,
    "m_Type": "UnityEditor.ShaderGraph.DynamicValueMaterialSlot",
    "m_ObjectId": "f6a67ffd562644b2ac6637ca340d1a29",
    "m_Id": 0,
    "m_DisplayName": "A",
    "m_SlotType": 0,
    "m_Hidden": false,
    "m_ShaderOutputName": "A",
    "m_StageCapability": 3,
    "m_Value": {
        "e00": 0.0,
        "e01": 0.0,
        "e02": 0.0,
        "e03": 0.0,
        "e10": 0.0,
        "e11": 0.0,
        "e12": 0.0,
        "e13": 0.0,
        "e20": 0.0,
        "e21": 0.0,
        "e22": 0.0,
        "e23": 0.0,
        "e30": 0.0,
        "e31": 0.0,
        "e32": 0.0,
        "e33": 0.0
    },
    "m_DefaultValue": {
        "e00": 1.0,
        "e01": 0.0,
        "e02": 0.0,
        "e03": 0.0,
        "e10": 0.0,
        "e11": 1.0,
        "e12": 0.0,
        "e13": 0.0,
        "e20": 0.0,
        "e21": 0.0,
        "e22": 1.0,
        "e23": 0.0,
        "e30": 0.0,
        "e31": 0.0,
        "e32": 0.0,
        "e33": 1.0
    }
}

{
    "m_SGVersion": 0,
    "m_Type": "UnityEditor.ShaderGraph.Vector1MaterialSlot",
    "m_ObjectId": "fa7080e8b8cf466ca43dfaa1bb97a38b",
    "m_Id": 0,
    "m_DisplayName": "Ambient Occlusion",
    "m_SlotType": 0,
    "m_Hidden": false,
    "m_ShaderOutputName": "Occlusion",
    "m_StageCapability": 2,
    "m_Value": 1.0,
    "m_DefaultValue": 1.0,
    "m_Labels": []
}

{
    "m_SGVersion": 0,
    "m_Type": "UnityEditor.ShaderGraph.ColorRGBMaterialSlot",
    "m_ObjectId": "fe62cb0947e84058bef2189ea9579eeb",
    "m_Id": 0,
    "m_DisplayName": "Emission",
    "m_SlotType": 0,
    "m_Hidden": false,
    "m_ShaderOutputName": "Emission",
    "m_StageCapability": 2,
    "m_Value": {
        "x": 0.0,
        "y": 0.0,
        "z": 0.0
    },
    "m_DefaultValue": {
        "x": 0.0,
        "y": 0.0,
        "z": 0.0
    },
    "m_Labels": [],
    "m_ColorMode": 1,
    "m_DefaultColor": {
        "r": 0.0,
        "g": 0.0,
        "b": 0.0,
        "a": 1.0
    }
}

