%YAML 1.1
%TAG !u! tag:unity3d.com,2011:
--- !u!1 &4858812864804890676
GameObject:
  m_ObjectHideFlags: 0
  m_CorrespondingSourceObject: {fileID: 0}
  m_PrefabInstance: {fileID: 0}
  m_PrefabAsset: {fileID: 0}
  serializedVersion: 6
  m_Component:
  - component: {fileID: 1418891384137542840}
  m_Layer: 7
  m_Name: Shoot Point
  m_TagString: Untagged
  m_Icon: {fileID: 0}
  m_NavMeshLayer: 0
  m_StaticEditorFlags: 0
  m_IsActive: 1
--- !u!4 &1418891384137542840
Transform:
  m_ObjectHideFlags: 0
  m_CorrespondingSourceObject: {fileID: 0}
  m_PrefabInstance: {fileID: 0}
  m_PrefabAsset: {fileID: 0}
  m_GameObject: {fileID: 4858812864804890676}
  serializedVersion: 2
  m_LocalRotation: {x: -0, y: -0, z: -0, w: 1}
  m_LocalPosition: {x: 0, y: 0, z: 0}
  m_LocalScale: {x: 1, y: 1, z: 1}
  m_ConstrainProportionsScale: 0
  m_Children: []
  m_Father: {fileID: 8176340417677306866}
  m_LocalEulerAnglesHint: {x: 0, y: 0, z: 0}
--- !u!1001 &4953924251294022112
PrefabInstance:
  m_ObjectHideFlags: 0
  serializedVersion: 2
  m_Modification:
    serializedVersion: 3
    m_TransformParent: {fileID: 0}
    m_Modifications:
    - target: {fileID: 172161516557819828, guid: d619f7888409d3a48b8a453bcef7b87c, type: 3}
      propertyPath: m_Mass
      value: 3.4636056
      objectReference: {fileID: 0}
    - target: {fileID: 1449165491902653553, guid: d619f7888409d3a48b8a453bcef7b87c, type: 3}
      propertyPath: m_Controller
      value: 
      objectReference: {fileID: 9100000, guid: 7a90ad5322344ea488638a052c1ce422, type: 2}
    - target: {fileID: 4961684859378728785, guid: d619f7888409d3a48b8a453bcef7b87c, type: 3}
      propertyPath: m_RootOrder
      value: 0
      objectReference: {fileID: 0}
    - target: {fileID: 4961684859378728785, guid: d619f7888409d3a48b8a453bcef7b87c, type: 3}
      propertyPath: m_LocalPosition.x
      value: 0
      objectReference: {fileID: 0}
    - target: {fileID: 4961684859378728785, guid: d619f7888409d3a48b8a453bcef7b87c, type: 3}
      propertyPath: m_LocalPosition.y
      value: 0
      objectReference: {fileID: 0}
    - target: {fileID: 4961684859378728785, guid: d619f7888409d3a48b8a453bcef7b87c, type: 3}
      propertyPath: m_LocalPosition.z
      value: 0
      objectReference: {fileID: 0}
    - target: {fileID: 4961684859378728785, guid: d619f7888409d3a48b8a453bcef7b87c, type: 3}
      propertyPath: m_LocalRotation.w
      value: 1
      objectReference: {fileID: 0}
    - target: {fileID: 4961684859378728785, guid: d619f7888409d3a48b8a453bcef7b87c, type: 3}
      propertyPath: m_LocalRotation.x
      value: 0
      objectReference: {fileID: 0}
    - target: {fileID: 4961684859378728785, guid: d619f7888409d3a48b8a453bcef7b87c, type: 3}
      propertyPath: m_LocalRotation.y
      value: 0
      objectReference: {fileID: 0}
    - target: {fileID: 4961684859378728785, guid: d619f7888409d3a48b8a453bcef7b87c, type: 3}
      propertyPath: m_LocalRotation.z
      value: 0
      objectReference: {fileID: 0}
    - target: {fileID: 4961684859378728785, guid: d619f7888409d3a48b8a453bcef7b87c, type: 3}
      propertyPath: m_LocalEulerAnglesHint.x
      value: 0
      objectReference: {fileID: 0}
    - target: {fileID: 4961684859378728785, guid: d619f7888409d3a48b8a453bcef7b87c, type: 3}
      propertyPath: m_LocalEulerAnglesHint.y
      value: 0
      objectReference: {fileID: 0}
    - target: {fileID: 4961684859378728785, guid: d619f7888409d3a48b8a453bcef7b87c, type: 3}
      propertyPath: m_LocalEulerAnglesHint.z
      value: 0
      objectReference: {fileID: 0}
    - target: {fileID: 4961684859378728787, guid: d619f7888409d3a48b8a453bcef7b87c, type: 3}
      propertyPath: m_Name
      value: Boss 1
      objectReference: {fileID: 0}
    - target: {fileID: 7322852364887724833, guid: d619f7888409d3a48b8a453bcef7b87c, type: 3}
      propertyPath: maxHp
      value: 100
      objectReference: {fileID: 0}
    - target: {fileID: 7322852364887724833, guid: d619f7888409d3a48b8a453bcef7b87c, type: 3}
      propertyPath: radius
      value: 1.484924
      objectReference: {fileID: 0}
    - target: {fileID: 7322852364887724833, guid: d619f7888409d3a48b8a453bcef7b87c, type: 3}
      propertyPath: collider
      value: 
      objectReference: {fileID: 5721953057227509984}
    - target: {fileID: 7322852364887724833, guid: d619f7888409d3a48b8a453bcef7b87c, type: 3}
      propertyPath: m_Enabled
      value: 1
      objectReference: {fileID: 0}
    - target: {fileID: 7322852364887724833, guid: d619f7888409d3a48b8a453bcef7b87c, type: 3}
      propertyPath: moveSpeed
      value: 2.5
      objectReference: {fileID: 0}
    - target: {fileID: 7322852364887724833, guid: d619f7888409d3a48b8a453bcef7b87c, type: 3}
      propertyPath: prefabIndex
      value: -1
      objectReference: {fileID: 0}
    - target: {fileID: 7322852364887724833, guid: d619f7888409d3a48b8a453bcef7b87c, type: 3}
      propertyPath: attackRadius
      value: 0.156
      objectReference: {fileID: 0}
    - target: {fileID: 7322852364887724833, guid: d619f7888409d3a48b8a453bcef7b87c, type: 3}
      propertyPath: safeDistance
      value: 2
      objectReference: {fileID: 0}
    - target: {fileID: 7322852364887724833, guid: d619f7888409d3a48b8a453bcef7b87c, type: 3}
      propertyPath: animatorSpeed
      value: 1
      objectReference: {fileID: 0}
    - target: {fileID: 7322852364887724833, guid: d619f7888409d3a48b8a453bcef7b87c, type: 3}
      propertyPath: bulletPatternEntries.Array.size
      value: 1
      objectReference: {fileID: 0}
    - target: {fileID: 7322852364887724833, guid: d619f7888409d3a48b8a453bcef7b87c, type: 3}
      propertyPath: bulletPatternEntries.Array.data[0].name
      value: Shoot Spiral
      objectReference: {fileID: 0}
    - target: {fileID: 7322852364887724833, guid: d619f7888409d3a48b8a453bcef7b87c, type: 3}
      propertyPath: bulletPatternEntries.Array.data[0].spawner
      value: 
      objectReference: {fileID: 1418891384137542840}
    - target: {fileID: 7322852364887724833, guid: d619f7888409d3a48b8a453bcef7b87c, type: 3}
      propertyPath: bulletPatternEntries.Array.data[0].bulletPrefab
      value: 
      objectReference: {fileID: 5858488744564896765, guid: f1ad202b82ebf4642adb0b824112ff3a, type: 3}
    - target: {fileID: 7322852364887724833, guid: d619f7888409d3a48b8a453bcef7b87c, type: 3}
      propertyPath: bulletPatternEntries.Array.data[0].bulletPattern
      value: 
      objectReference: {fileID: 11400000, guid: 4f25e3067d383d9429aa459517ef9da8, type: 2}
    - target: {fileID: 7361084788561427202, guid: d619f7888409d3a48b8a453bcef7b87c, type: 3}
      propertyPath: 'm_Materials.Array.data[0]'
      value: 
      objectReference: {fileID: 2100000, guid: 0a7d1e070d6a01f469d449139a2397cd, type: 2}
    - target: {fileID: 9220204762470110636, guid: d619f7888409d3a48b8a453bcef7b87c, type: 3}
      propertyPath: m_Size.x
      value: 0.841623
      objectReference: {fileID: 0}
    - target: {fileID: 9220204762470110636, guid: d619f7888409d3a48b8a453bcef7b87c, type: 3}
      propertyPath: m_Sprite
      value: 
      objectReference: {fileID: 21300000, guid: a9c584aa0c8fba34aa4b3abade85ce64, type: 3}
    - target: {fileID: 9220204762470110636, guid: d619f7888409d3a48b8a453bcef7b87c, type: 3}
      propertyPath: m_WasSpriteAssigned
      value: 1
      objectReference: {fileID: 0}
    - target: {fileID: 9220204762470110636, guid: d619f7888409d3a48b8a453bcef7b87c, type: 3}
      propertyPath: 'm_Materials.Array.data[0]'
      value: 
      objectReference: {fileID: 2100000, guid: 0a7d1e070d6a01f469d449139a2397cd, type: 2}
    m_RemovedComponents: []
    m_RemovedGameObjects: []
    m_AddedGameObjects:
    - targetCorrespondingSourceObject: {fileID: 3875327233493144082, guid: d619f7888409d3a48b8a453bcef7b87c, type: 3}
      insertIndex: -1
      addedObject: {fileID: 1418891384137542840}
    m_AddedComponents: []
  m_SourcePrefab: {fileID: 100100000, guid: d619f7888409d3a48b8a453bcef7b87c, type: 3}
--- !u!58 &5721953057227509984 stripped
CircleCollider2D:
  m_CorrespondingSourceObject: {fileID: 853337714447296768, guid: d619f7888409d3a48b8a453bcef7b87c, type: 3}
  m_PrefabInstance: {fileID: 4953924251294022112}
  m_PrefabAsset: {fileID: 0}
--- !u!4 &8176340417677306866 stripped
Transform:
  m_CorrespondingSourceObject: {fileID: 3875327233493144082, guid: d619f7888409d3a48b8a453bcef7b87c, type: 3}
  m_PrefabInstance: {fileID: 4953924251294022112}
  m_PrefabAsset: {fileID: 0}
