%YAML 1.1
%TAG !u! tag:unity3d.com,2011:
--- !u!114 &11400000
MonoBehaviour:
  m_ObjectHideFlags: 0
  m_CorrespondingSourceObject: {fileID: 0}
  m_PrefabInstance: {fileID: 0}
  m_PrefabAsset: {fileID: 0}
  m_GameObject: {fileID: 0}
  m_Enabled: 1
  m_EditorHideFlags: 0
  m_Script: {fileID: 11500000, guid: f9616e7269a62d54f84def11bd3a1fad, type: 3}
  m_Name: Aim At Player With Offset 1
  m_EditorClassIdentifier: 
  canSpawn: 0
  setSpawnerAimingOnShoot: 1
  offset: 45
