%YAML 1.1
%TAG !u! tag:unity3d.com,2011:
--- !u!1001 &5424908508667262688
PrefabInstance:
  m_ObjectHideFlags: 0
  serializedVersion: 2
  m_Modification:
    serializedVersion: 3
    m_TransformParent: {fileID: 0}
    m_Modifications:
    - target: {fileID: 1874814602990611697, guid: 9160e36211aac194fb551d49125e0f37, type: 3}
      propertyPath: 'm_Materials.Array.data[0]'
      value: 
      objectReference: {fileID: 2100000, guid: 50f8a271b44064f4ebbaffa709c9a0f4, type: 2}
    - target: {fileID: 1874814603719935250, guid: 9160e36211aac194fb551d49125e0f37, type: 3}
      propertyPath: m_Name
      value: Boss Bullet 2
      objectReference: {fileID: 0}
    - target: {fileID: 1874814603719935260, guid: 9160e36211aac194fb551d49125e0f37, type: 3}
      propertyPath: m_RootOrder
      value: 0
      objectReference: {fileID: 0}
    - target: {fileID: 1874814603719935260, guid: 9160e36211aac194fb551d49125e0f37, type: 3}
      propertyPath: m_LocalPosition.x
      value: 0
      objectReference: {fileID: 0}
    - target: {fileID: 1874814603719935260, guid: 9160e36211aac194fb551d49125e0f37, type: 3}
      propertyPath: m_LocalPosition.y
      value: 0
      objectReference: {fileID: 0}
    - target: {fileID: 1874814603719935260, guid: 9160e36211aac194fb551d49125e0f37, type: 3}
      propertyPath: m_LocalPosition.z
      value: 0
      objectReference: {fileID: 0}
    - target: {fileID: 1874814603719935260, guid: 9160e36211aac194fb551d49125e0f37, type: 3}
      propertyPath: m_LocalRotation.w
      value: 1
      objectReference: {fileID: 0}
    - target: {fileID: 1874814603719935260, guid: 9160e36211aac194fb551d49125e0f37, type: 3}
      propertyPath: m_LocalRotation.x
      value: 0
      objectReference: {fileID: 0}
    - target: {fileID: 1874814603719935260, guid: 9160e36211aac194fb551d49125e0f37, type: 3}
      propertyPath: m_LocalRotation.y
      value: 0
      objectReference: {fileID: 0}
    - target: {fileID: 1874814603719935260, guid: 9160e36211aac194fb551d49125e0f37, type: 3}
      propertyPath: m_LocalRotation.z
      value: 0
      objectReference: {fileID: 0}
    - target: {fileID: 1874814603719935260, guid: 9160e36211aac194fb551d49125e0f37, type: 3}
      propertyPath: m_LocalEulerAnglesHint.x
      value: 0
      objectReference: {fileID: 0}
    - target: {fileID: 1874814603719935260, guid: 9160e36211aac194fb551d49125e0f37, type: 3}
      propertyPath: m_LocalEulerAnglesHint.y
      value: 0
      objectReference: {fileID: 0}
    - target: {fileID: 1874814603719935260, guid: 9160e36211aac194fb551d49125e0f37, type: 3}
      propertyPath: m_LocalEulerAnglesHint.z
      value: 0
      objectReference: {fileID: 0}
    - target: {fileID: 1874814603719935261, guid: 9160e36211aac194fb551d49125e0f37, type: 3}
      propertyPath: damage
      value: 1
      objectReference: {fileID: 0}
    - target: {fileID: 1874814603719935261, guid: 9160e36211aac194fb551d49125e0f37, type: 3}
      propertyPath: moveSpeed
      value: 6.5
      objectReference: {fileID: 0}
    - target: {fileID: 1874814603719935261, guid: 9160e36211aac194fb551d49125e0f37, type: 3}
      propertyPath: prefabIndex
      value: 21
      objectReference: {fileID: 0}
    - target: {fileID: 1874814603719935263, guid: 9160e36211aac194fb551d49125e0f37, type: 3}
      propertyPath: m_Mass
      value: 0.076453805
      objectReference: {fileID: 0}
    - target: {fileID: 5931993978498046411, guid: 9160e36211aac194fb551d49125e0f37, type: 3}
      propertyPath: 'm_Materials.Array.data[0]'
      value: 
      objectReference: {fileID: 2100000, guid: 50f8a271b44064f4ebbaffa709c9a0f4, type: 2}
    m_RemovedComponents: []
    m_RemovedGameObjects: []
    m_AddedGameObjects: []
    m_AddedComponents: []
  m_SourcePrefab: {fileID: 100100000, guid: 9160e36211aac194fb551d49125e0f37, type: 3}
