%YAML 1.1
%TAG !u! tag:unity3d.com,2011:
--- !u!1 &8844313567028517938
GameObject:
  m_ObjectHideFlags: 0
  m_CorrespondingSourceObject: {fileID: 0}
  m_PrefabInstance: {fileID: 0}
  m_PrefabAsset: {fileID: 0}
  serializedVersion: 6
  m_Component:
  - component: {fileID: 995262472407589520}
  - component: {fileID: 1072277452566210081}
  m_Layer: 11
  m_Name: Collider
  m_TagString: Untagged
  m_Icon: {fileID: 0}
  m_NavMeshLayer: 0
  m_StaticEditorFlags: 0
  m_IsActive: 1
--- !u!4 &995262472407589520
Transform:
  m_ObjectHideFlags: 0
  m_CorrespondingSourceObject: {fileID: 0}
  m_PrefabInstance: {fileID: 0}
  m_PrefabAsset: {fileID: 0}
  m_GameObject: {fileID: 8844313567028517938}
  serializedVersion: 2
  m_LocalRotation: {x: -0, y: -0, z: -0, w: 1}
  m_LocalPosition: {x: 0, y: 0, z: 0}
  m_LocalScale: {x: 1, y: 1, z: 1}
  m_ConstrainProportionsScale: 0
  m_Children: []
  m_Father: {fileID: 6798888969366436840}
  m_LocalEulerAnglesHint: {x: 0, y: 0, z: 0}
--- !u!58 &1072277452566210081
CircleCollider2D:
  m_ObjectHideFlags: 0
  m_CorrespondingSourceObject: {fileID: 0}
  m_PrefabInstance: {fileID: 0}
  m_PrefabAsset: {fileID: 0}
  m_GameObject: {fileID: 8844313567028517938}
  m_Enabled: 0
  serializedVersion: 3
  m_Density: 1
  m_Material: {fileID: 0}
  m_IncludeLayers:
    serializedVersion: 2
    m_Bits: 0
  m_ExcludeLayers:
    serializedVersion: 2
    m_Bits: 0
  m_LayerOverridePriority: 0
  m_ForceSendLayers:
    serializedVersion: 2
    m_Bits: 4294967295
  m_ForceReceiveLayers:
    serializedVersion: 2
    m_Bits: 4294967295
  m_ContactCaptureLayers:
    serializedVersion: 2
    m_Bits: 4294967295
  m_CallbackLayers:
    serializedVersion: 2
    m_Bits: 4294967295
  m_IsTrigger: 0
  m_UsedByEffector: 0
  m_CompositeOperation: 0
  m_CompositeOrder: 0
  m_Offset: {x: 0, y: 0}
  m_Radius: 0.464
--- !u!1001 &4122961613336567238
PrefabInstance:
  m_ObjectHideFlags: 0
  serializedVersion: 2
  m_Modification:
    serializedVersion: 3
    m_TransformParent: {fileID: 0}
    m_Modifications:
    - target: {fileID: 3403369100171803385, guid: beeba8e0528fe6b4a97f683d58d8b2d6, type: 3}
      propertyPath: 'm_Materials.Array.data[0]'
      value: 
      objectReference: {fileID: 2100000, guid: cf78be271dde43043b3d99149599f3a0, type: 2}
    - target: {fileID: 5000868766112631847, guid: beeba8e0528fe6b4a97f683d58d8b2d6, type: 3}
      propertyPath: radius
      value: 0.42
      objectReference: {fileID: 0}
    - target: {fileID: 5000868766112631847, guid: beeba8e0528fe6b4a97f683d58d8b2d6, type: 3}
      propertyPath: m_Enabled
      value: 0
      objectReference: {fileID: 0}
    - target: {fileID: 5000868766112631847, guid: beeba8e0528fe6b4a97f683d58d8b2d6, type: 3}
      propertyPath: magnitude
      value: 1.4
      objectReference: {fileID: 0}
    - target: {fileID: 7452668761730863043, guid: beeba8e0528fe6b4a97f683d58d8b2d6, type: 3}
      propertyPath: m_Sprite
      value: 
      objectReference: {fileID: -2413806693520163455, guid: ebe73ca9363db456bacf42c025bb4847, type: 3}
    - target: {fileID: 7452668761730863043, guid: beeba8e0528fe6b4a97f683d58d8b2d6, type: 3}
      propertyPath: m_Color.a
      value: 0.1254902
      objectReference: {fileID: 0}
    - target: {fileID: 7452668761730863043, guid: beeba8e0528fe6b4a97f683d58d8b2d6, type: 3}
      propertyPath: m_Color.b
      value: 0
      objectReference: {fileID: 0}
    - target: {fileID: 7452668761730863043, guid: beeba8e0528fe6b4a97f683d58d8b2d6, type: 3}
      propertyPath: m_Color.g
      value: 0
      objectReference: {fileID: 0}
    - target: {fileID: 7452668761730863043, guid: beeba8e0528fe6b4a97f683d58d8b2d6, type: 3}
      propertyPath: m_Color.r
      value: 1
      objectReference: {fileID: 0}
    - target: {fileID: 7452668761730863043, guid: beeba8e0528fe6b4a97f683d58d8b2d6, type: 3}
      propertyPath: m_SortingLayer
      value: -1
      objectReference: {fileID: 0}
    - target: {fileID: 7452668761730863043, guid: beeba8e0528fe6b4a97f683d58d8b2d6, type: 3}
      propertyPath: m_SortingLayerID
      value: 41023813
      objectReference: {fileID: 0}
    - target: {fileID: 7452668761730863045, guid: beeba8e0528fe6b4a97f683d58d8b2d6, type: 3}
      propertyPath: m_LocalScale.x
      value: 1.3639554
      objectReference: {fileID: 0}
    - target: {fileID: 7452668761730863045, guid: beeba8e0528fe6b4a97f683d58d8b2d6, type: 3}
      propertyPath: m_LocalScale.y
      value: 1.3639554
      objectReference: {fileID: 0}
    - target: {fileID: 7452668761730863045, guid: beeba8e0528fe6b4a97f683d58d8b2d6, type: 3}
      propertyPath: m_LocalScale.z
      value: 1.3639554
      objectReference: {fileID: 0}
    - target: {fileID: 7452668761730863045, guid: beeba8e0528fe6b4a97f683d58d8b2d6, type: 3}
      propertyPath: m_LocalPosition.x
      value: 0.18
      objectReference: {fileID: 0}
    - target: {fileID: 7452668761730863045, guid: beeba8e0528fe6b4a97f683d58d8b2d6, type: 3}
      propertyPath: m_LocalPosition.y
      value: 0.22
      objectReference: {fileID: 0}
    - target: {fileID: 7452668761730863046, guid: beeba8e0528fe6b4a97f683d58d8b2d6, type: 3}
      propertyPath: m_Name
      value: Graphics
      objectReference: {fileID: 0}
    - target: {fileID: 7452668761730863046, guid: beeba8e0528fe6b4a97f683d58d8b2d6, type: 3}
      propertyPath: m_Layer
      value: 11
      objectReference: {fileID: 0}
    - target: {fileID: 7452668762594420256, guid: beeba8e0528fe6b4a97f683d58d8b2d6, type: 3}
      propertyPath: m_Name
      value: Fire Trail Bomb
      objectReference: {fileID: 0}
    - target: {fileID: 7452668762594420256, guid: beeba8e0528fe6b4a97f683d58d8b2d6, type: 3}
      propertyPath: m_Layer
      value: 11
      objectReference: {fileID: 0}
    - target: {fileID: 7452668762594420269, guid: beeba8e0528fe6b4a97f683d58d8b2d6, type: 3}
      propertyPath: m_Mass
      value: 1
      objectReference: {fileID: 0}
    - target: {fileID: 7452668762594420269, guid: beeba8e0528fe6b4a97f683d58d8b2d6, type: 3}
      propertyPath: m_BodyType
      value: 2
      objectReference: {fileID: 0}
    - target: {fileID: 7452668762594420270, guid: beeba8e0528fe6b4a97f683d58d8b2d6, type: 3}
      propertyPath: m_RootOrder
      value: 0
      objectReference: {fileID: 0}
    - target: {fileID: 7452668762594420270, guid: beeba8e0528fe6b4a97f683d58d8b2d6, type: 3}
      propertyPath: m_LocalScale.x
      value: 0.84
      objectReference: {fileID: 0}
    - target: {fileID: 7452668762594420270, guid: beeba8e0528fe6b4a97f683d58d8b2d6, type: 3}
      propertyPath: m_LocalScale.y
      value: 0.84
      objectReference: {fileID: 0}
    - target: {fileID: 7452668762594420270, guid: beeba8e0528fe6b4a97f683d58d8b2d6, type: 3}
      propertyPath: m_LocalPosition.x
      value: 0
      objectReference: {fileID: 0}
    - target: {fileID: 7452668762594420270, guid: beeba8e0528fe6b4a97f683d58d8b2d6, type: 3}
      propertyPath: m_LocalPosition.y
      value: 0
      objectReference: {fileID: 0}
    - target: {fileID: 7452668762594420270, guid: beeba8e0528fe6b4a97f683d58d8b2d6, type: 3}
      propertyPath: m_LocalPosition.z
      value: 0
      objectReference: {fileID: 0}
    - target: {fileID: 7452668762594420270, guid: beeba8e0528fe6b4a97f683d58d8b2d6, type: 3}
      propertyPath: m_LocalRotation.w
      value: 1
      objectReference: {fileID: 0}
    - target: {fileID: 7452668762594420270, guid: beeba8e0528fe6b4a97f683d58d8b2d6, type: 3}
      propertyPath: m_LocalRotation.x
      value: 0
      objectReference: {fileID: 0}
    - target: {fileID: 7452668762594420270, guid: beeba8e0528fe6b4a97f683d58d8b2d6, type: 3}
      propertyPath: m_LocalRotation.y
      value: 0
      objectReference: {fileID: 0}
    - target: {fileID: 7452668762594420270, guid: beeba8e0528fe6b4a97f683d58d8b2d6, type: 3}
      propertyPath: m_LocalRotation.z
      value: 0
      objectReference: {fileID: 0}
    - target: {fileID: 7452668762594420270, guid: beeba8e0528fe6b4a97f683d58d8b2d6, type: 3}
      propertyPath: m_LocalEulerAnglesHint.x
      value: 0
      objectReference: {fileID: 0}
    - target: {fileID: 7452668762594420270, guid: beeba8e0528fe6b4a97f683d58d8b2d6, type: 3}
      propertyPath: m_LocalEulerAnglesHint.y
      value: 0
      objectReference: {fileID: 0}
    - target: {fileID: 7452668762594420270, guid: beeba8e0528fe6b4a97f683d58d8b2d6, type: 3}
      propertyPath: m_LocalEulerAnglesHint.z
      value: 0
      objectReference: {fileID: 0}
    - target: {fileID: 7898264246336257176, guid: beeba8e0528fe6b4a97f683d58d8b2d6, type: 3}
      propertyPath: damage
      value: 1
      objectReference: {fileID: 0}
    - target: {fileID: 7898264246336257176, guid: beeba8e0528fe6b4a97f683d58d8b2d6, type: 3}
      propertyPath: radius
      value: 0.42
      objectReference: {fileID: 0}
    - target: {fileID: 7898264246336257176, guid: beeba8e0528fe6b4a97f683d58d8b2d6, type: 3}
      propertyPath: collider
      value: 
      objectReference: {fileID: 1072277452566210081}
    - target: {fileID: 7898264246336257176, guid: beeba8e0528fe6b4a97f683d58d8b2d6, type: 3}
      propertyPath: duration
      value: 3
      objectReference: {fileID: 0}
    - target: {fileID: 7898264246336257176, guid: beeba8e0528fe6b4a97f683d58d8b2d6, type: 3}
      propertyPath: prefabIndex
      value: 3
      objectReference: {fileID: 0}
    - target: {fileID: 7898264246336257176, guid: beeba8e0528fe6b4a97f683d58d8b2d6, type: 3}
      propertyPath: autoDespawnMode
      value: 2
      objectReference: {fileID: 0}
    - target: {fileID: 7898264246336257176, guid: beeba8e0528fe6b4a97f683d58d8b2d6, type: 3}
      propertyPath: explosionPrefab
      value: 
      objectReference: {fileID: 2304566772022380516, guid: 0ceaf3db2138b4d4c878db019f90ef87, type: 3}
    - target: {fileID: 7898264246336257176, guid: beeba8e0528fe6b4a97f683d58d8b2d6, type: 3}
      propertyPath: hitsTillDespawn
      value: 255
      objectReference: {fileID: 0}
    - target: {fileID: 7898264246336257176, guid: beeba8e0528fe6b4a97f683d58d8b2d6, type: 3}
      propertyPath: explodeOnDisable
      value: 1
      objectReference: {fileID: 0}
    - target: {fileID: 7898264246336257176, guid: beeba8e0528fe6b4a97f683d58d8b2d6, type: 3}
      propertyPath: explodeDelayAnimEntry.animatorStateName
      value: Explode
      objectReference: {fileID: 0}
    m_RemovedComponents:
    - {fileID: 7452668761730863044, guid: beeba8e0528fe6b4a97f683d58d8b2d6, type: 3}
    m_RemovedGameObjects: []
    m_AddedGameObjects:
    - targetCorrespondingSourceObject: {fileID: 7452668762594420270, guid: beeba8e0528fe6b4a97f683d58d8b2d6, type: 3}
      insertIndex: -1
      addedObject: {fileID: 995262472407589520}
    m_AddedComponents: []
  m_SourcePrefab: {fileID: 100100000, guid: beeba8e0528fe6b4a97f683d58d8b2d6, type: 3}
--- !u!4 &6798888969366436840 stripped
Transform:
  m_CorrespondingSourceObject: {fileID: 7452668762594420270, guid: beeba8e0528fe6b4a97f683d58d8b2d6, type: 3}
  m_PrefabInstance: {fileID: 4122961613336567238}
  m_PrefabAsset: {fileID: 0}
