%YAML 1.1
%TAG !u! tag:unity3d.com,2011:
--- !u!114 &11400000
MonoBehaviour:
  m_ObjectHideFlags: 0
  m_CorrespondingSourceObject: {fileID: 0}
  m_PrefabInstance: {fileID: 0}
  m_PrefabAsset: {fileID: 0}
  m_GameObject: {fileID: 0}
  m_Enabled: 1
  m_EditorHideFlags: 0
  m_Script: {fileID: 11500000, guid: 0dbbbe0c0e2f1dd41b9407e810e50e79, type: 3}
  m_Name: Shoot In Local Direction Then Continuously Split In Relative Arc 1
  m_EditorClassIdentifier: 
  canSpawn: 1
  setSpawnerAimingOnShoot: 1
  shootDirection: {x: 0, y: -1, z: 0}
  splitBulletPrefab: {fileID: 5858488744564896765, guid: 2a7031d524dc5bb42b934160232dd170, type: 3}
  rotationToSplitArc: {x: 0, y: 0, z: 0}
  splitArcRotaAxis: {x: 0, y: 0, z: 1}
  splitDelay: 1
  splitArcDegrees: 360
  splitNumber: 4
