%YAML 1.1
%TAG !u! tag:unity3d.com,2011:
--- !u!114 &11400000
MonoBehaviour:
  m_ObjectHideFlags: 0
  m_CorrespondingSourceObject: {fileID: 0}
  m_PrefabInstance: {fileID: 0}
  m_PrefabAsset: {fileID: 0}
  m_GameObject: {fileID: 0}
  m_Enabled: 1
  m_EditorHideFlags: 0
  m_Script: {fileID: 11500000, guid: ad6aa200a8bcb154ebdbff6cf866954a, type: 3}
  m_Name: Shoot In Local Direction Then Split In Relative Arc On Disable
  m_EditorClassIdentifier: 
  canSpawn: 1
  setSpawnerAimingOnShoot: 0
  shootDirection: {x: 0, y: 1, z: 0}
  splitBulletPrefab: {fileID: 5858488744564896765, guid: b9a76a7246d275d43b05f0bb32e3e682, type: 3}
  rotationToSplitArc: {x: 0, y: 0, z: 180}
  splitArcRotaAxis: {x: 0, y: 0, z: 1}
  splitArcDegrees: 90
  splitNumber: 2
