%YAML 1.1
%TAG !u! tag:unity3d.com,2011:
--- !u!1001 &199957164680523765
PrefabInstance:
  m_ObjectHideFlags: 0
  serializedVersion: 2
  m_Modification:
    serializedVersion: 3
    m_TransformParent: {fileID: 0}
    m_Modifications:
    - target: {fileID: 3935543508452208800, guid: 850fd3f366bb75a43b29250b7ff3dea8, type: 3}
      propertyPath: m_RootOrder
      value: 0
      objectReference: {fileID: 0}
    - target: {fileID: 3935543508452208800, guid: 850fd3f366bb75a43b29250b7ff3dea8, type: 3}
      propertyPath: m_LocalPosition.x
      value: 0
      objectReference: {fileID: 0}
    - target: {fileID: 3935543508452208800, guid: 850fd3f366bb75a43b29250b7ff3dea8, type: 3}
      propertyPath: m_LocalPosition.y
      value: 0
      objectReference: {fileID: 0}
    - target: {fileID: 3935543508452208800, guid: 850fd3f366bb75a43b29250b7ff3dea8, type: 3}
      propertyPath: m_LocalPosition.z
      value: 0
      objectReference: {fileID: 0}
    - target: {fileID: 3935543508452208800, guid: 850fd3f366bb75a43b29250b7ff3dea8, type: 3}
      propertyPath: m_LocalRotation.w
      value: 1
      objectReference: {fileID: 0}
    - target: {fileID: 3935543508452208800, guid: 850fd3f366bb75a43b29250b7ff3dea8, type: 3}
      propertyPath: m_LocalRotation.x
      value: 0
      objectReference: {fileID: 0}
    - target: {fileID: 3935543508452208800, guid: 850fd3f366bb75a43b29250b7ff3dea8, type: 3}
      propertyPath: m_LocalRotation.y
      value: 0
      objectReference: {fileID: 0}
    - target: {fileID: 3935543508452208800, guid: 850fd3f366bb75a43b29250b7ff3dea8, type: 3}
      propertyPath: m_LocalRotation.z
      value: 0
      objectReference: {fileID: 0}
    - target: {fileID: 3935543508452208800, guid: 850fd3f366bb75a43b29250b7ff3dea8, type: 3}
      propertyPath: m_LocalEulerAnglesHint.x
      value: 0
      objectReference: {fileID: 0}
    - target: {fileID: 3935543508452208800, guid: 850fd3f366bb75a43b29250b7ff3dea8, type: 3}
      propertyPath: m_LocalEulerAnglesHint.y
      value: 0
      objectReference: {fileID: 0}
    - target: {fileID: 3935543508452208800, guid: 850fd3f366bb75a43b29250b7ff3dea8, type: 3}
      propertyPath: m_LocalEulerAnglesHint.z
      value: 0
      objectReference: {fileID: 0}
    - target: {fileID: 3935543508452208802, guid: 850fd3f366bb75a43b29250b7ff3dea8, type: 3}
      propertyPath: m_Name
      value: Riposte
      objectReference: {fileID: 0}
    - target: {fileID: 3935543508452208803, guid: 850fd3f366bb75a43b29250b7ff3dea8, type: 3}
      propertyPath: value
      value: 40
      objectReference: {fileID: 0}
    - target: {fileID: 3935543508452208803, guid: 850fd3f366bb75a43b29250b7ff3dea8, type: 3}
      propertyPath: combinedWith.Array.size
      value: 4
      objectReference: {fileID: 0}
    m_RemovedComponents:
    - {fileID: 3935543508452208803, guid: 850fd3f366bb75a43b29250b7ff3dea8, type: 3}
    m_RemovedGameObjects: []
    m_AddedGameObjects: []
    m_AddedComponents:
    - targetCorrespondingSourceObject: {fileID: 3935543508452208802, guid: 850fd3f366bb75a43b29250b7ff3dea8, type: 3}
      insertIndex: -1
      addedObject: {fileID: 3423051986534607931}
  m_SourcePrefab: {fileID: 100100000, guid: 850fd3f366bb75a43b29250b7ff3dea8, type: 3}
--- !u!4 &3772811437629562709 stripped
Transform:
  m_CorrespondingSourceObject: {fileID: 3935543508452208800, guid: 850fd3f366bb75a43b29250b7ff3dea8, type: 3}
  m_PrefabInstance: {fileID: 199957164680523765}
  m_PrefabAsset: {fileID: 0}
--- !u!1 &3772811437629562711 stripped
GameObject:
  m_CorrespondingSourceObject: {fileID: 3935543508452208802, guid: 850fd3f366bb75a43b29250b7ff3dea8, type: 3}
  m_PrefabInstance: {fileID: 199957164680523765}
  m_PrefabAsset: {fileID: 0}
--- !u!114 &3423051986534607931
MonoBehaviour:
  m_ObjectHideFlags: 0
  m_CorrespondingSourceObject: {fileID: 0}
  m_PrefabInstance: {fileID: 0}
  m_PrefabAsset: {fileID: 0}
  m_GameObject: {fileID: 3772811437629562711}
  m_Enabled: 1
  m_EditorHideFlags: 0
  m_Script: {fileID: 11500000, guid: 3246a296b2c6d1d46ad2bd5c17a04705, type: 3}
  m_Name: 
  m_EditorClassIdentifier: 
  description: When dodging an enemy's attack, do ~ damage to it (scales with % Damage)
  value: 15
  trs: {fileID: 3772811437629562709}
  maxCount: 0
  combinedWith: []
