%YAML 1.1
%TAG !u! tag:unity3d.com,2011:
--- !u!1 &7960405862464817397
GameObject:
  m_ObjectHideFlags: 0
  m_CorrespondingSourceObject: {fileID: 0}
  m_PrefabInstance: {fileID: 0}
  m_PrefabAsset: {fileID: 0}
  serializedVersion: 6
  m_Component:
  - component: {fileID: 5350600556438833141}
  - component: {fileID: 63903813014296317}
  m_Layer: 0
  m_Name: Save And Load Manager
  m_TagString: Untagged
  m_Icon: {fileID: 0}
  m_NavMeshLayer: 0
  m_StaticEditorFlags: 0
  m_IsActive: 1
--- !u!4 &5350600556438833141
Transform:
  m_ObjectHideFlags: 0
  m_CorrespondingSourceObject: {fileID: 0}
  m_PrefabInstance: {fileID: 0}
  m_PrefabAsset: {fileID: 0}
  m_GameObject: {fileID: 7960405862464817397}
  serializedVersion: 2
  m_LocalRotation: {x: -0, y: -0, z: -0, w: 1}
  m_LocalPosition: {x: 0, y: 0, z: 0}
  m_LocalScale: {x: 1, y: 1, z: 1}
  m_ConstrainProportionsScale: 0
  m_Children: []
  m_Father: {fileID: 0}
  m_LocalEulerAnglesHint: {x: 0, y: 0, z: 0}
--- !u!114 &63903813014296317
MonoBehaviour:
  m_ObjectHideFlags: 0
  m_CorrespondingSourceObject: {fileID: 0}
  m_PrefabInstance: {fileID: 0}
  m_PrefabAsset: {fileID: 0}
  m_GameObject: {fileID: 7960405862464817397}
  m_Enabled: 1
  m_EditorHideFlags: 0
  m_Script: {fileID: 11500000, guid: 1d1499227dc64b5498688a34f1fe1cc4, type: 3}
  m_Name: 
  m_EditorClassIdentifier: 
  handleMultipleInstances: 0
  persistant: 0
  defaultSaveData:
    completeAchievementsNames: []
    levelName: 
    playerName: Player 1 (John)
    triedPlayers: []
    inputRebindings: 
    triedZones: []
    difficultySettings:
      name: Normal
      difficulty: 0.8
    rankedDuels: 0
    privateDuels: 0
    privateDuelName: 
    triedTutorials: []
    mousedOverStats: []
    unlockedMinigames:
    - Doors Game
    - RTT
