%YAML 1.1
%TAG !u! tag:unity3d.com,2011:
--- !u!114 &11400000
MonoBehaviour:
  m_ObjectHideFlags: 0
  m_CorrespondingSourceObject: {fileID: 0}
  m_PrefabInstance: {fileID: 0}
  m_PrefabAsset: {fileID: 0}
  m_GameObject: {fileID: 0}
  m_Enabled: 1
  m_EditorHideFlags: 0
  m_Script: {fileID: 11500000, guid: ebc8de8875fc19b2c893aeac1d5400b3, type: 3}
  m_Name: Repeat Bullet Patterns 1
  m_EditorClassIdentifier: 
  canSpawn: 1
  setSpawnerAimingOnShoot: 0
  repeatCount: 1
  bulletPatterns:
  - {fileID: 11400000, guid: 7570564580e28624da97be9a1f14598f, type: 2}
  - {fileID: 11400000, guid: 2d08aea2973ba434087e95a3e86c8fc4, type: 2}
  - {fileID: 11400000, guid: 3ee91f9dcf1537543952ef467a872d50, type: 2}
